{
	"R1": {
		"FileName":"rpt_MonthDTR_2",
		"Name":"Checking of Monthly Attendance",
		"SystemRefId":2,
		"Owner":"E2E",
		"ExtType":"php",
		"For":"AttendanceDateCriterias"
	},
	"2": {
		"FileName":"rpt_New_Leave_Card_35",
		"Name":"Leave Card 2019 Edition",
		"SystemRefId":2,
		"Owner":"E2E",
		"ExtType":"php",
		"For":"AttendanceDateCriterias"
	},
	"3": {
		"FileName":"rpt_Leave_Card_21",
		"Name":"Leave Card MIRDC",
		"SystemRefId":2,
		"Owner":"E2E",
		"ExtType":"php",
		"For":"AttendanceDateCriterias"
	}
}