{
   "Module": "Module.AMS.Availment.Monization",
   "Module.AMS.Availment.Monization": {
      "jsonFile": "AvailmentLeaveMonitization",
      "Module Name": "Availment of Leave Monitization",
      "Description": "",
      "Author": "Erwin Mendoza",
      "System": "Attendance Management System",
      "Module Save Type": "Single",
      "Module Type": "List",
      "dbTable": "employeesleavemonetization",
      "dbField": [
         [
            "VLBalance",
            "deci_VLBalance",
            "0",
            "int",
            "VL Balance"
         ],
         [
            "VLAmount",
            "deci_VLAmount",
            "0",
            "int",
            "VL Amount"
         ],
         [
            "SLBalance",
            "deci_SLBalance",
            "0",
            "int",
            "SL Balance"
         ],
         [
            "SLAmount",
            "deci_SLAmount",
            "0",
            "int",
            "SL Amount"
         ],
         [
            "FiledDate",
            "date_FiledDate",
            "",
            "date",
            "Date Filed"
         ],
         [
            "Remarks",
            "char_Remarks",
            "",
            "char",
            "Remarks"
         ]
      ],
      "field.EndDate": "ApplicationDateTo",
      "field.StartDate": "ApplicationDateFrom",
      "Notes": "Fields[0] - Object Name[1] - Default Value[2] - Data Type[3] - Label[4]"

   }
   
}
         
