{
	"employeesmovement": [
		[
			"sint_EmployeesRefId",
			"EmployeesRefId",
			"int"
		],
		[
			"sint_ApptType",
			"ApptType",
			"int"
		],
		[
			"sint_ApptStatusRefId",
			"ApptStatusRefId",
			"int"
		],
		[
			"date_EffectivityDate",
			"EffectivityDate",
			"date"
		],
		[
			"char_Remarks",
			"Remarks",
			"char"
		],
		[
			"sint_AgencyRefId",
			"AgencyRefId",
			"int"
		],
		[
			"sint_PositionItemRefId",
			"PositionItemRefId",
			"int"
		],
		[
			"sint_PositionRefId",
			"PositionRefId",
			"int"
		],
		[
			"sint_DepartmentRefId",
			"DepartmentRefId",
			"int"
		],
		[
			"sint_OfficeRefId",
			"OfficeRefId",
			"int"
		],
		[
			"sint_DivisionRefId",
			"DivisionRefId",
			"int"
		],
		[
			"sint_EmpStatusRefId",
			"EmpStatusRefId",
			"int"
		],
		[
			"sint_DesignationRefId",
			"DesignationRefId",
			"int"
		],
		[
			"sint_SalaryGradeRefId",
			"SalaryGradeRefId",
			"int"
		],
		[
			"sint_JobGradeRefId",
			"JobGradeRefId",
			"int"
		],
		[
			"sint_StepIncrementRefId",
			"StepIncrementRefId",
			"int"
		],
		[
			"deci_SalaryAmount",
			"SalaryAmount",
			"deci"
		],
		[
			"sint_LWOP",
			"LWOP",
			"int"
		],
		[
			"date_LWOPDate",
			"LWOPDate",
			"date"
		],
		[
			"char_Cause",
			"Cause",
			"char"
		]
	],
	"employeesmovement_empinfo": [
		[
			"sint_ApptStatusRefId",
			"ApptStatusRefId",
			"int"
		],
		[
			"sint_AgencyRefId",
			"AgencyRefId",
			"int"
		],
		[
			"sint_PositionItemRefId",
			"PositionItemRefId",
			"int"
		],
		[
			"sint_PositionRefId",
			"PositionRefId",
			"int"
		],
		[
			"sint_DepartmentRefId",
			"DepartmentRefId",
			"int"
		],
		[
			"sint_OfficeRefId",
			"OfficeRefId",
			"int"
		],
		[
			"sint_DivisionRefId",
			"DivisionRefId",
			"int"
		],
		[
			"sint_EmpStatusRefId",
			"EmpStatusRefId",
			"int"
		],
		[
			"sint_DesignationRefId",
			"DesignationRefId",
			"int"
		],
		[
			"sint_SalaryGradeRefId",
			"SalaryGradeRefId",
			"int"
		],
		[
			"sint_JobGradeRefId",
			"JobGradeRefId",
			"int"
		],
		[
			"sint_StepIncrementRefId",
			"StepIncrementRefId",
			"int"
		],
		[
			"deci_SalaryAmount",
			"SalaryAmount",
			"deci"
		]
	],
	"pms_salaryinfo": [
		[
			"SalaryGradeRefId",
			"salarygrade_id",
			"int"
		],
		[
			"JobGradeRefId",
			"jobgrade_id",
			"int"
		],
		[
			"PositionItemRefId",
			"positionitem_id",
			"int"
		],
		[
			"EmpStatusRefId",
			"employee_status_id",
			"int"
		],
		[
			"PositionRefId",
			"position_id",
			"int"
		],
		[
			"StepIncrementRefId",
			"step_inc",
			"int"
		],
		[
			"ApptStatusRefId",
			"appointment_status_id",
			"char"
		]
	]
}