1985005,1,TANGWAY ELEM. SHOOL,Elementary,1963,1969,-,,FIRST+HONOR,,,,,,,,,,,,,,,,,
1985005,2,THE MABINI ACADEMY,High School,1969,1973,-,,HONORABLE+MENTION,,,,,,,,,,,,,,,,,
1985005,4,NATIONAL UNIVERSITY,BS Industrial Engineering,1973,1978,-,,UNIVERSITY+SCHOLAR,,,,,,,,,,,,,,,,,
1985005,5,POLYTECHNIC UNIVERSITY OF THE PHIL.,Master In Industrial Engineering and Management,1992,1996,-,,-,,,,,,,,,,,,,,,,,
2005001,1,BEATA ELEM. SCHOOL,Elementary,1986,1991,-,,-,,,,,,,,,,,,,,,,,
2005001,2,CARLOS P. GARCIA HIGH SCHOOL,High School,1991,1995,-,,-,,,,,,,,,,,,,,,,,
2005001,4,TECHNOLOGICAL UNIVERSIITY OF THE PHILIPPENSE,BS in Electrical Engineering,1995,2000,-,,-,,,,,,,,,,,,,,,,,
2005001,5,TECHNOLOGICAL UNIVERSIITY OF THE PHILIPPENSE,Masters in Engineering,2003,0,-,,-,,,,,,,,,,,,,,,,,
1990008,1,ILAT ELEM. SCHOOL,Primary,1975,1981,-,,-,,,,,,,,,,,,,,,,,
1990008,2,SAN PASCUAL HIGH SCHOOL,High School,1982,1986,-,,-,,,,,,,,,,,,,,,,,
1990008,3,GUZMAN INSTITUTE OF TECHNIOLOGY,Drafting Technology,1986,1989,-,,-,,,,,,,,,,,,,,,,,
1996003,1,CABUYAO CENTER ELEM. SCHOOL,Elementary,1973,1979,-,,-,,,,,,,,,,,,,,,,,
1996003,2,CABUYAO INSTITUTE,High School,1979,1983,-,,BEST+IN+MATHEMATICS,,,,,,,,,,,,,,,,,
1996003,4,COLEGIO DE SAN JUAN DE LETRAN,BS Industrial Management Engineering,1983,1988,-,,-,,,,,,,,,,,,,,,,,
1996003,5,POLYTECHNIC UNIVERSITY OF THE PHILS.- MANILA,Master in Public Administration,2010,2011,0,,-,,,,,,,,,,,,,,,,,
2015001,4,University of San Carlos,Bachelor of Science in Chemistry,2004,2008,*,,none,,,,,,,,,,,,,,,,,
2011008,1,CLAVERIA CENTRAL SCHOOL,Elementary,1993,1999,-,,6TH+HONOR,,,,,,,,,,,,,,,,,
2011008,2,CLAVERIA SCHOOL OF ARTS AND TRADES,High School,1999,2003,-,,6TH+HONOR,,,,,,,,,,,,,,,,,
2011008,4,MARIANO MARCOS STATE UNIVERSITY BATAC ILOCOS NORTE,BS Business Administration-Entrepreneurship Acctg.,2003,2007,-,,-,,,,,,,,,,,,,,,,,
2011008,5,INTERNATIONAL ACADEMY OF MANAGEMENT AND ECONOMICS,Master in  Business Management,2009,2010,*,,none,,,,,,,,,,,,,,,,,
1984001,1,OPAO ELEM. SCHOOL,Elementary,1973,1979,-,,-,,,,,,,,,,,,,,,,,
1984001,2,EAST NEGROS INTITUTE,High School,1979,1983,-,,-,,,,,,,,,,,,,,,,,
1984001,3,Infotech Computer School,Computer Programming,1998,1998,12,,-,,,,,,,,,,,,,,,,,
1983003,1,MALVAR CENTER SCHOOL,Elementary,1968,1974,-,,-,,,,,,,,,,,,,,,,,
1983003,2,JP LAUREL SR. MEM. SCHOOL,High School,1977,1981,-,,1st+HONOR,,,,,,,,,,,,,,,,,
1983003,3,JP LAUREL SR. MEM. SCHOOL,Auto Mechanic,1981,1982,-,,-,,,,,,,,,,,,,,,,,
2003001,2,VILLAMOR HIGH SCHOOL,High School,1984,1988,0,,none,,,,,,,,,,,,,,,,,
2003001,1,STA. ANA ELEM. SCHOOL,Elementary,1978,1984,0,,none,,,,,,,,,,,,,,,,,
2003001,4,Technological University of the Philippines,Computer Electronic Technician,1988,1991,*,,none,,,,,,,,,,,,,,,,,
2010016,1,HIMAMAYLAN CENTRAL ELEMENTARY SCHOOL,Elementary,1989,1995,-,,-,,,,,,,,,,,,,,,,,
2010016,2,HIMAMAYLAN NATIONAL HIGH SCHOOL,High School,1995,1999,-,,-,,,,,,,,,,,,,,,,,
2010016,5,TECHNOLOGY UNIVERSITY OF THE PHILIPPINES - MANILA,Master in Management,2009,2011,0,,GRADUATED,,,,,,,,,,,,,,,,,
2010016,4,TECHNOLOGY UNIVERSITY OF THE PHILIPPINES - TAGUIG,Bachelor of Engineering,2005,2008,-,,-,,,,,,,,,,,,,,,,,
2010016,4,TECHNOLOGY UNIVERSITY OF THE PHILIPPINES - VISAYAS,Electro Mechanical,1999,2002,-,,-,,,,,,,,,,,,,,,,,
2012005,1,DONA AURORA ELEM. SCHOOL,Elementary,1990,1996,-,,-,,,,,,,,,,,,,,,,,
2012005,2,QUIRINO GENERAL HIGH SCHOOL,High School,1996,2000,-,,-,,,,,,,,,,,,,,,,,
2012005,4,CAGAYAN STATE UNIVERSITY,BS in Computer Engineering,2000,2005,-,,DOST+SCHOLAR,,,,,,,,,,,,,,,,,
1981002,2,LAGUNA SCHOOL OF ARTS,High School,1974,1978,-,,-,,,,,,,,,,,,,,,,,
1981002,1,BUBUKAL ELEMENTARY SCHOOL,Elementary,1968,1974,-,,-,,,,,,,,,,,,,,,,,
1981002,3,LAGUNA SCHOOL OF ARTS AND TRADES,Electrical Technology,1978,1980,-,,-,,,,,,,,,,,,,,,,,
2019001,,,,,,,,,,,,,,,,,,,,,,,,,
2013006,1,UPPER BICUTAN ELEMENTARY SCHOOL,Elementary,1987,1993,0,,none,,,,,,,,,,,,,,,,,
2013006,2,ST. FRANCIS OF ASSISI COLLEGE,High School,1993,1997,0,,none,,,,,,,,,,,,,,,,,
2013006,4,CENTRO ESCOLAR UNIVERSITYT,BS Commerce - Management,1997,2001,0,,LEADERSHIP AWARD,,,,,,,,,,,,,,,,,
2013006,5,TECHNOLOGY UNIVERSITY OF THE PHILIPPINES,Master in Management,2010,2012,0,,none,,,,,,,,,,,,,,,,,
2013006,5,POLYTECHNIC UNIVERSITY OF THE PHILIPPINES,Doctor in Business Administration,2012,0,18,,none,,,,,,,,,,,,,,,,,
2018011,1,PEDRO A. PATERNO ELEMENTARY SCHOOL,Primary,2002,2006,*,,none,,,,,,,,,,,,,,,,,
2018011,2,PEDRO A. PATERNO NATIONAL HIGH SCHOOL,SECONDARY,2006,2010,*,,none,,,,,,,,,,,,,,,,,
2018011,4,TAGUIG CITY UNIVERSITY,Bachelor of Business Management,2012,2016,*,,none,,,,,,,,,,,,,,,,,
2011019,1,BILOGBILOG ELEM SCHOOL,Elementary,1989,1995,-,,-,,,,,,,,,,,,,,,,,
2011019,2,TANALIAN INSTITUTE,High School,1995,1998,-,,-,,,,,,,,,,,,,,,,,
2011019,3,LIPA CITY COLLEGES,Computer Technician,1999,2001,-,,-,,,,,,,,,,,,,,,,,
1985004,1,MAGAHIS ELEMENTARY SCHOOL,Elementary,1970,1976,-,,-,,,,,,,,,,,,,,,,,
1985004,2,PEPT,High School,1995,1995,-,,-,,,,,,,,,,,,,,,,,
1985004,3,INFOTECH COMPUTER SCHOOL,Computer Programming,1998,1998,12,,-,,,,,,,,,,,,,,,,,
1992007,1,SINISIAN ELEM. SCHOOL CALACA BATANGAS,Elementary,1980,1986,-,,THIRD+HONOR,,,,,,,,,,,,,,,,,
1992007,2,P.A. PATERNO HIGH SCHOOL CALACA BATANGAS,High School,1986,1990,-,,-,,,,,,,,,,,,,,,,,
1992007,3,INFOTECH COMPUTER SCHOOL,Computer Programming,1998,1998,12,,-,,,,,,,,,,,,,,,,,
2011018,1,TAMBAN CENTRAL SCHOOL,Elementary,1987,1993,-,,0,,,,,,,,,,,,,,,,,
2011018,2,ATENEO DE NAGA,High School,1993,1997,-,,0,,,,,,,,,,,,,,,,,
2011018,4,UP-DILIMAN,BS Materials Engineering,1997,2002,0,,0,,,,,,,,,,,,,,,,,
2011018,3,MICROCADD,Autocadd 2004 Level I & II,2008,2008,0,,none,,,,,,,,,,,,,,,,,
2011018,5,University of the Philippines-Diliman,0,0,0,6,,none,,,,,,,,,,,,,,,,,
1987004,1,ACACIA ELEM. SCHOOL,Elementary,1964,1970,-,,GRADUATE,,,,,,,,,,,,,,,,,
1987004,2,A. BONIFACIO HIGH SCHOOL,High School,1970,1974,-,,GRADUATE,,,,,,,,,,,,,,,,,
1987004,3,FU.P -FORMER PCAT,Mechanical Technology,1974,1977,0,,0,,,,,,,,,,,,,,,,,
2010005,1,CALINOG ELEM. SCHOOL,Elementary,1993,1999,-,,WITH+HONOR,,,,,,,,,,,,,,,,,
2010005,2,CALINOG NATIONAL COMPREHENSIVE HIGH SCHOOL,High School,1999,2002,-,,FOURTH+HONORABLE+MENTION,,,,,,,,,,,,,,,,,
2010005,4,WEST VISAYAS STATE UNIVESITY LAMBUNAO CAMPUS,BS Information Technology,2002,2006,0,,WITH+DISTINCTION,,,,,,,,,,,,,,,,,
1977001,1,SAN MATEO ELEM. SHOOL,Elementary,1965,1971,-,,0,,,,,,,,,,,,,,,,,
1977001,2,DONA AURORA HIGH SCHOOL,High School,1971,1975,-,,0,,,,,,,,,,,,,,,,,
1977001,3,MARIKINA SCHOOL OF ARTS AND TRADE,Machine Shop Technology,1975,1977,-,,0,,,,,,,,,,,,,,,,,
2010002,1,RICARDO P. CRUZ SR. ELEM. SCHOOL,Elementary,1994,1999,-,,NONE,,,,,,,,,,,,,,,,,
2010002,2,SAINT FRANCIS OF ASSASI COLLEGE,High School,1999,2003,-,,NONE,,,,,,,,,,,,,,,,,
2010002,4,TECHNOLOGICAL UNIVERSITY OF THE PHILS.- TAGUIG,BS Electronics and Communications Engineering,2007,2011,-,,NONE,,,,,,,,,,,,,,,,,
1993004,1,CAMLIGAN CENTRAL SCHOOL,Elementary,1976,1982,-,,0,,,,,,,,,,,,,,,,,
1993004,2,UNIVERSITY OF NUEVA CACERES,High School,1982,1986,-,,0,,,,,,,,,,,,,,,,,
1993004,3,NATIONAL MANPOWER AND YOUTH COUNCIL,0,1994,1994,*,,0,,,,,,,,,,,,,,,,,
1993004,4,PHIL. MARITIME INSTITUTE COLLEGE,0,1986,1988,*,,none,,,,,,,,,,,,,,,,,
2011020,2,ITWES AGRICULTURE NATIONAL HIGH SCHOOL,Secondary,1988,1994,-,,none,,,,,,,,,,,,,,,,,
2011020,1,GUMARWENG ELEMENTARY SCHOOL,Elementary,1983,1988,-,,none,,,,,,,,,,,,,,,,,
2011020,3,FLORENZO VARAS COLLEGE,Seamans Training Course,1994,1997,-,,none,,,,,,,,,,,,,,,,,
1993002,1,KAPANGI-AN ELEM SCHOOL,Elementary,1975,1981,-,,FIRST+HONORABLE+MEMTION,,,,,,,,,,,,,,,,,
1993002,2,LEYTE NATIONAL HIGH SCHOOL,High School,1981,1985,-,,0,,,,,,,,,,,,,,,,,
1993002,4,DIVINE WORD UNIVERSITY OF TACLOBAN,BS Mechanical Engineering,1985,1990,0,,0,,,,,,,,,,,,,,,,,
2016009,2,Para?aque Municipal High School,0,1992,1988,*,,none,,,,,,,,,,,,,,,,,
2016009,1,PARANAQUE MUNICIPAL HIGH SCHOOL,0,1983,1988,0,,none,,,,,,,,,,,,,,,,,
2016009,4,AMA COMPUTER LEARNING CENTER,0,2004,2005,-,,none,,,,,,,,,,,,,,,,,
2018005,1,SAINT CYR ACADEMY,Elementary,1996,2002,*,,SALUTATORIAN,,,,,,,,,,,,,,,,,
2018005,2,PARA?AQUE SCIENCE HIGH SCHOOL,Secondary,2002,2006,*,,none,,,,,,,,,,,,,,,,,
2018005,4,MANILA ADVENTIST MEDICAL CENTER AND COLLEGES INC.,Bachelor of Science in Nursing,2007,2011,*,,OUTSTANDING PERFORMANCE IN CLINICAL INTERNSHIP,,,,,,,,,,,,,,,,,
1995005,1,Sasmuan Central Elementary School,Elementary,1973,1979,0,,Second+Honors,,,,,,,,,,,,,,,,,
1995005,2,Guagua National Colleges,High School,1979,1983,0,,none,,,,,,,,,,,,,,,,,
1995005,4,University of the East,BS in Mechanical Engineering,1984,1989,0,,none,,,,,,,,,,,,,,,,,
1995005,5,De La Salle University,Master in Mechanical Engineering,1996,1999,-,,none,,,,,,,,,,,,,,,,,
1987013,1,KORONADAL CENTRAL ELEMENTARY SCHOOL,Elementary,1967,1973,-,,none,,,,,,,,,,,,,,,,,
1987013,2,KORONADAL NATIONAL COMPREHENSIVE HIGH SCHOOL,High School,1973,1977,-,,none,,,,,,,,,,,,,,,,,
1987013,4,NOTRE DAME UNIVERSITY,BSC Economics,1979,1983,-,,none,,,,,,,,,,,,,,,,,
2011023,1,VILLAMOR AIR BASE ELEM. SCHOOL,0,1994,2000,-,,NONE,,,,,,,,,,,,,,,,,
2011023,2,PASAY CITY SOUTH HIGH SCHOOL,High School,2000,2004,-,,NONE,,,,,,,,,,,,,,,,,
2011023,3,TECHNOLOGICAL UNIVERSIITY OF THE PHILIPPENSE- TAGUIG,Instrumentation and Control Technology,2004,2007,-,,NONE,,,,,,,,,,,,,,,,,
2011023,4, TECHNOLOGICAL UNIVERSIITY OF THE PHILIPPENSE- TAGUIG,Bachelor of Engineering-Manufacturing,2007,2009,-,,NONE,,,,,,,,,,,,,,,,,
2014001,1,EULOGIO RODRIGUEZ ELEMENTARY SCHOOL,Elementary,1994,1996,0,,none,,,,,,,,,,,,,,,,,
2014001,1,ANABU II ELEMENTARY SCHOOL,Elementary,1996,2000,0,,none,,,,,,,,,,,,,,,,,
2014001,2,PAG-IBIG UNIDA SCHOOL,Secondary,2000,2004,0,,none,,,,,,,,,,,,,,,,,
2014001,4,MANILA DOCTORS COLLEGE,BS Nursing,2004,2008,0,,none,,,,,,,,,,,,,,,,,
2014001,5,PHILIPPINE NORMAL UNIVERSITY,Certificate in Teaching Practice,2009,2010,25,,none,,,,,,,,,,,,,,,,,
2011017,1,Bonifacio Memorial Elementary School,Elementary,1986,1991,-,,none,,,,,,,,,,,,,,,,,
2011017,2,SouthEastern College,High School,1991,1995,-,,none,,,,,,,,,,,,,,,,,
2011017,4,Polytechnic University of the Philippines-Taguig,BS Mechanical Engineering,1997,2002,-,,none,,,,,,,,,,,,,,,,,
2011017,5,Technological University of the Philippines Manila,Master of Science in Mechanical Engineering,2015,0,*,,none,,,,,,,,,,,,,,,,,
2015003,4,Philippine Normal University,0,2010,2014,*,,none,,,,,,,,,,,,,,,,,
2015003,1,Manabo Pilot Elem School,0,2000,2006,0,,none,,,,,,,,,,,,,,,,,
2015003,2,Manabo National HS,0,2006,2010,0,,none,,,,,,,,,,,,,,,,,
2011033,1,ILAGAN EAST CENTRAL SCHOOL,Elementary,1987,1993,-,,0,,,,,,,,,,,,,,,,,
2011033,2,ISABELA NATIONAL HIGH SCHOOL,High School,1993,1997,-,,DOST+SCHOLARSHIP+AWARD,,,,,,,,,,,,,,,,,
2011033,4,SAINT MARYS UNIVERSITY,BS Chemistry,1997,2001,0,,CUMLAUDE,,,,,,,,,,,,,,,,,
2015005,,,,,,,,,,,,,,,,,,,,,,,,,
2010011,2,Libon Agro Industrial High School,High School,2002,2006,0,,1ST+HONORABLE+MENTION,,,,,,,,,,,,,,,,,
2010011,4,Bicol University,AB SOCIOLOGY,2006,2010,0,,Cum+Laude,,,,,,,,,,,,,,,,,
2010011,1,Libon Central School,0,1996,2002,0,,2ND+HONORABLE+MENTION,,,,,,,,,,,,,,,,,
2018008,1,Tambo Elementary School,Elementary,1972,1978,graduated,,none,,,,,,,,,,,,,,,,,
2018008,2,Arellano University - Jose Abad Santos High School Campus,Secondary,1978,1982,graduated,,none,,,,,,,,,,,,,,,,,
2018008,4,Mapua Institute of Technology,Secondary,1982,1995,graduated,,none,,,,,,,,,,,,,,,,,
1985001,1,Narvacan North Central School,Elementary,1972,1978,0,,none,,,,,,,,,,,,,,,,,
1985001,2,Narvacan National Central High School,High School,1978,1982,0,,none,,,,,,,,,,,,,,,,,
1985001,3,Samson Institute of Technology,Gen. Radio Communication Operator,1982,1984,100,,none,,,,,,,,,,,,,,,,,
1989005,1,PACO CATHOLIC SCHOOL/MOONWALK ELEM. SCHOOL,Elementary,1972,1978,-,,none,,,,,,,,,,,,,,,,,
1989005,2,Perpetual Help College of Rizal,High School,1978,1982,-,,none,,,,,,,,,,,,,,,,,
1989005,5,PLM,BBM-MBA,1993,1995,24,,none,,,,,,,,,,,,,,,,,
1989005,4,ST. PAUL COLLEGE OF MANILA,BS Commerce-Accounting,1982,1986,0,,none,,,,,,,,,,,,,,,,,
2016010,3,Don Mariano Marcos Memorial State University- South La Union Campos ,0,2010,2012,1.25,,0,,,,,,,,,,,,,,,,,
2016010,4,Don Mariano Marcos Memorial State University- South La Union Campos ,0,2012,2014,1.25,,Com Laude Best Thesis Programmer of the Year,,,,,,,,,,,,,,,,,
2016010,5,Don Mariano Marcos Memorial State University- Mid La Union Campos ,0,--,--,6 units,,0,,,,,,,,,,,,,,,,,
2016010,5,Don Mariano Marcos Memoral State University Mid La Union Campus,Master of Science in Information Management,0,0,6,,none,,,,,,,,,,,,,,,,,
2010014,1,Caruray Elemntary School,Elementary,1995,1989,-,,none,,,,,,,,,,,,,,,,,
2010014,2,Caruray National Highschool,High School,1995,2000,-,,none,,,,,,,,,,,,,,,,,
2010014,3,Western Philippines University,Diploma in Mechanical Engineering Technology,2006,2010,-,,none,,,,,,,,,,,,,,,,,
2010014,4,Adventist University of the Philippines,History Philosopy & Religion,2003,2005,41,,none,,,,,,,,,,,,,,,,,
2011002,1,NAPNAPAN ELEMENTARY SCHOOL,Elementary,1994,2000,0,,none,,,,,,,,,,,,,,,,,
2011002,2,NAPNAPAN NATIONAL HIGH SCHOOL,High School,2000,2004,0,,none,,,,,,,,,,,,,,,,,
2011002,4,WESTERN VISAYAS COLLEGE OF SCIENCE AND TECHNOLOGY,Bachelor of Science in Elementary Education,2004,2008,*,,none,,,,,,,,,,,,,,,,,
2011037,1,Saint Francis of Assisi College System,Elementary,1986,1992,0,,none,,,,,,,,,,,,,,,,,
2011037,2,Saint Francis of Assisi  College System,High School,1992,1996,0,,none,,,,,,,,,,,,,,,,,
2011037,4,Polytechnic University of the Philippines (Taguig),BS Office Administration,1996,2000,0,,none,,,,,,,,,,,,,,,,,
2013002,1,CUMADCAD ELEMENTARY SCHOOL,Elementary,1993,1999,0,,none,,,,,,,,,,,,,,,,,
2013002,2,CUMADCAD NATIONAL HIGH SCHOOL,High School,1999,2003,0,,none,,,,,,,,,,,,,,,,,
2013002,4,DE VERA INSTITUTE OF TECHNOLOGY,BS Electronics and Communications Engineer,2003,2008,0,,none,,,,,,,,,,,,,,,,,
2014009,,,,,,,,,,,,,,,,,,,,,,,,,
2012012,1,Sto. Nino Elementary School,Elementary,1966,1972,0,,none,,,,,,,,,,,,,,,,,
2012012,2,St. Andrews School,High School,1972,1976,0,,none,,,,,,,,,,,,,,,,,
2012012,4,Far Eastern University,BS Mechanical Engineering,1975,1981,0,,none,,,,,,,,,,,,,,,,,
2012012,3,TESDA,Domestic Refrigeration and Airconditioning,1982,1982,-,,none,,,,,,,,,,,,,,,,,
2018006,1,ABORLAN CENTRAL SCHOOL,Primary,1994,2000,*,,none,,,,,,,,,,,,,,,,,
2018006,2,ISAUB NATIONAL HIGH SCHOOL,SECONDARY,2004,2009,*,,none,,,,,,,,,,,,,,,,,
2018006,3,WESTERN PHILIPPINES UNIVERSITY,Diploma in Mechanical Engineering Technology,2009,2012,*,,none,,,,,,,,,,,,,,,,,
1989006,1,NAMEI Polytechnic Institute,Elementary,1968,1974,-,,none,,,,,,,,,,,,,,,,,
1989006,2,NAMEI Polytechnic Institute,High School,1974,1978,-,,none,,,,,,,,,,,,,,,,,
1989006,4,ADAMSON UNIVERSITY,BS in Industrial Engineering,1978,1983,0,,none,,,,,,,,,,,,,,,,,
1987009,1,LARION BAJO ELEM. SCHOOL,Elementary,1973,1979,-,,none,,,,,,,,,,,,,,,,,
1987009,2,CAGAYAN NATIONAL HIGH SCHOOL,High School,1983,1987,-,,none,,,,,,,,,,,,,,,,,
1987009,3,INFOTECH COMPUTER SCHOOL,Computer Programming,1998,1999,12,,none,,,,,,,,,,,,,,,,,
2015008,4,Taguig City University,Bachelor of Science in Computer Science,2008,2012,n/a,,Cum laude,,,,,,,,,,,,,,,,,
2015008,1,Bicutan Papa Elem. School,0,2004,2008,0,,none,,,,,,,,,,,,,,,,,
2015008,1,National Techer College,0,1998,2000,0,,none,,,,,,,,,,,,,,,,,
2011032,1,MUNTINLUPA ELEMENTARY SCHOOL,Elementary,1986,1992,-,,0,,,,,,,,,,,,,,,,,
2011032,2,LAGUNA NORTHWESTERN COLLEGE,High School,1992,1996,-,,0,,,,,,,,,,,,,,,,,
2011032,4,UNIVERSITY OF PERPETUAL HELP RIZAL,BS in Computer Science,1996,2000,0,,0,,,,,,,,,,,,,,,,,
2011032,5, UNIVERSITY OF THE PHILIPPINES LOS BANOS,Master of Information Technology,2007,2010,0,,0,,,,,,,,,,,,,,,,,
2012011,1,Great Land Kinder and Grade School,Elementary,1988,1994,0,,none,,,,,,,,,,,,,,,,,
2012011,2,Muntinlupa National High School,High School,1994,1998,0,,none,,,,,,,,,,,,,,,,,
2012011,3,Batangas State University,BIT - Electronics,1998,2001,0,,DOST+Scholar,,,,,,,,,,,,,,,,,
2012011,4,Rizal Technological University,BS in Electronics and Communications Engineering,2002,2006,0,,none,,,,,,,,,,,,,,,,,
2012011,5,University of the Philippines Diliman,0,2010,2015,not applic,,none,,,,,,,,,,,,,,,,,
1993001,1,DE CASTRO ELEM. SCHOOL,0,1975,1981,-,,none,,,,,,,,,,,,,,,,,
1993001,2,CAINTA CATHOLIC SCHOOL,High School,1981,1985,-,,none,,,,,,,,,,,,,,,,,
1993001,4,MAPUA INSTITUTE OF TECHNOLOGY,BS Mechanical Engineering,1985,1990,-,,none,,,,,,,,,,,,,,,,,
1993006,1,MABINI ACADEMY,Elementary,1974,1980,-,,none,,,,,,,,,,,,,,,,,
1993006,2,MABINI ACADEMY,High School,1980,1984,-,,none,,,,,,,,,,,,,,,,,
1993006,4,UST,BS Chemical Engineering,1984,1989,-,,none,,,,,,,,,,,,,,,,,
2013003,1,UPPER BICUTAN ELEMENTARY SCHOOL,Elementary,1997,2003,-,,0,,,,,,,,,,,,,,,,,
2013003,2,DR. ARCADIO SANTOS NATIONAL HIGH SCHOOL,High School,2003,2007,-,,0,,,,,,,,,,,,,,,,,
2013003,3,TECHNOLOGICAL UNIVERSITY OF THE PHILS.-TAGUIG,Instrumentation and Control Engineering Technology,2008,2011,0,,0,,,,,,,,,,,,,,,,,
2013003,4,TECHNOLOGICAL UNIVERSITY OF THE PHILS.-TAGUIG,BS Electronics and Communications Engineering,2011,0,2ND YEAR,,0,,,,,,,,,,,,,,,,,
1978007,1,Atlag Elementary School,Elementary,1965,1971,0,,none,,,,,,,,,,,,,,,,,
1978007,2,Marcelo H. Del Pilar Highschool,High School,1971,1975,0,,none,,,,,,,,,,,,,,,,,
1978007,4,Philippie School of Business Administration,BS Management,1976,1982,158,,none,,,,,,,,,,,,,,,,,
2017006,4,Technological University of the Philippines - Taguig Campus,Bachelor of Science in Civil Engineering,2009,2015,GRADUATE,,none,,,,,,,,,,,,,,,,,
2017006,1,CA.A ELEM School,0,1998,2004,0,,none,,,,,,,,,,,,,,,,,
2017006,2,C.A.A Las Pinas National HS,0,2004,2007,0,,none,,,,,,,,,,,,,,,,,
2016005,1,St. Emilene Academe,0,0,0,*,,none,,,,,,,,,,,,,,,,,
2016005,2,Imus Institute,0,0,0,*,,none,,,,,,,,,,,,,,,,,
2016005,4,De La Salle Inuversity,0,0,0,*,,none,,,,,,,,,,,,,,,,,
1995007,1,LINMAUSANGAN ELEM. SCHOOL,0,1979,1985,-,,Valedictorian,,,,,,,,,,,,,,,,,
1995007,2,BINALONAN NATIONAL HIGH SCHOOL,High School,1985,1989,-,,2nd+Honorable+Mention,,,,,,,,,,,,,,,,,
1995007,4,MAPUA INSTITUTE OF TECHNOLOGY,BS Mechanical Engineering,1989,1994,0,,none,,,,,,,,,,,,,,,,,
1995007,5,MAPUA INSTITUTE OF TECHNOLOGY,Master in Engineering Major in ME,2009,2011,0,,none,,,,,,,,,,,,,,,,,
1990013,1,Zaragosa Elementary School,Elementary,1969,1975,0,,2nd honorable mention,,,,,,,,,,,,,,,,,
1990013,2,North Provincial HighSchool,High School,1975,1979,0,,5th+honorable+mention,,,,,,,,,,,,,,,,,
1990013,3,Cora Dolorosco Career Centre,Computer Secretarial,1989,1990,0,,none,,,,,,,,,,,,,,,,,
1990013,4,Far Eastern University,AB English,1980,1982,2nd Yr,,0,,,,,,,,,,,,,,,,,
1990013,4,Asian Institute for Distance Education,AB English,1993,2007,0,,none,,,,,,,,,,,,,,,,,
1990013,5,Polytechnic University of the Philippines,Master in Public Administration,2010,2011,0,,none,,,,,,,,,,,,,,,,,
1976004,1,STA. CLARA ELEM SCHOOL,Elementary,1962,1968,-,,none,,,,,,,,,,,,,,,,,
1976004,2,ST. THOMAS ACADEMY,High School,1970,1974,-,,none,,,,,,,,,,,,,,,,,
1976004,3,INFOTECH COMPUTER SCHOOL,Computer Programming,1998,1999,12,,none,,,,,,,,,,,,,,,,,
1976004,4,UNIVERSITY OF THE EAST,0,1972,1976,-,,none,,,,,,,,,,,,,,,,,
1985007,1,Pedro Guevara,Elementary,1969,1975,0,,none,,,,,,,,,,,,,,,,,
1985007,2,Jose Abad Santos,High School,1975,1979,0,,none,,,,,,,,,,,,,,,,,
1985007,3,Mataas ng Paaralan ng Paranaque,BIT - Electronics,1995,1995,0,,none,,,,,,,,,,,,,,,,,
1985007,3,Technological University of the Philippines,Automotive Technician-2 Yrs.,1980,1982,0,,none,,,,,,,,,,,,,,,,,
1985007,4,Technological University of the Philippines,BS Mechanical Engineering-4th Year,1982,1988,0,,none,,,,,,,,,,,,,,,,,
1985007,3,Mataas ng Paaralan ng Paranaque,Basic Electronics,1995,1995,0,,none,,,,,,,,,,,,,,,,,
1987010,1,Larion Bajo Elementary School,Elementary,1968,1973,0,,none,,,,,,,,,,,,,,,,,
1987010,2,Cagayan Valley College of Arts and Trade,High School,1974,1978,0,,none,,,,,,,,,,,,,,,,,
1987010,3,Infotech Computer School,Computer Programming,1998,1998,12,,none,,,,,,,,,,,,,,,,,
1993008,1,St. Mary s College Quezon City,0,1976,1982,0,,0,,,,,,,,,,,,,,,,,
1993008,4,Technology Institute Of The Philippines,BS Mechanical Engineering,1987,1992,0,,+++++,,,,,,,,,,,,,,,,,
1993008,4,Our Lady of Perpetual Succor School,0,1982,1986,0,,0,,,,,,,,,,,,,,,,,
1990001,1,NICHOLS AIR BASE ELEMENTARY,0,1970,1976,-,,0,,,,,,,,,,,,,,,,,
1990001,2,RAMON MAGSAYSAY (CUBAO) HIGH SCHOOL,High School,1978,1980,-,,0,,,,,,,,,,,,,,,,,
1990001,4,MAPUA INSTITUTE OF TECHNOLOGY,BS Metallurgical Engineering,1980,1986,0,,0,,,,,,,,,,,,,,,,,
1990001,5,TECHNOLOGICAL UNIVERSIITY OF THE PHILS. WEST SEVICE ROAD TAGUIG CITY PHIL.,Master in Management,1999,2000,24,,0,,,,,,,,,,,,,,,,,
1990007,1,Pilar Elementary School,Exec. Prog. in Mgmt. Spe:Tech. Transfer Management,1963,1969,0,,none,,,,,,,,,,,,,,,,,
1990007,2,Bataan High School,High School,1969,1973,0,,none,,,,,,,,,,,,,,,,,
1990007,3,Bataan National School of Arts and Trade,Machine Shop Technology,1974,1976,0,,none,,,,,,,,,,,,,,,,,
1990007,4,Feati University,BS Management Engineering,1976,1981,0,,none,,,,,,,,,,,,,,,,,
2011011,1,RICARDO P. CRUZ SR. ELEMENTARY SCHOOL,Elementary,1994,2000,0,,0,,,,,,,,,,,,,,,,,
2011011,2,TAGUIG NATIONAL HIGH SCHOOL,Secondary,2000,2004,0,,SALUTATORIAN,,,,,,,,,,,,,,,,,
2011011,4,POLYTHECNIC UNIVERSITY OF THE PHILS.,BS Chemistry,2004,2008,0,,0,,,,,,,,,,,,,,,,,
1981003,1,Nangka Elementary School,0,1969,1975,0,,0,,,,,,,,,,,,,,,,,
1981003,2,Roosevelt College Lamuan,High School,1975,1979,0,,none,,,,,,,,,,,,,,,,,
1981003,3,Marikina Institute of Science and Technology,Technical Machine Shop,1979,1981,0,,none,,,,,,,,,,,,,,,,,
1995001,1,TALISAY ELEMENTARY SCHOOL,Elementary,1975,1981,0,,0,,,,,,,,,,,,,,,,,
1995001,3,TECHNOLOGICAL UNIVERSITY OF THE PHIL. - VISAYAS,Mechanical Technology,1985,1990,0,,0,,,,,,,,,,,,,,,,,
1995001,2,TALISAY PROVINCIAL HIGH SCHOOL,High School,1981,1985,0,,0,,,,,,,,,,,,,,,,,
1987001,1,PANGAO ELEMENTARY SCHOOL,Elementary,1971,1977,0,,0,,,,,,,,,,,,,,,,,
1987001,2,LODLOD BRGY. HIGH SCHOOL,High School,1977,1982,0,,0,,,,,,,,,,,,,,,,,
1987001,3,INFOTECH COMPUTER SCHOOL,Computer Programming,1998,1999,0,,0,,,,,,,,,,,,,,,,,
1990011,1,ABANO PILOT ELEMENTARY SCHOOL,Elementary,1971,1977,-,,ACADEMICS+SCIENCE,,,,,,,,,,,,,,,,,
1990011,2,CAMARINES NORTE HIGH SCHOOL,High School,1977,1979,0,,0,,,,,,,,,,,,,,,,,
1990011,2,LAGRO HIGH SCHOOL,High School,1979,1981,0,,0,,,,,,,,,,,,,,,,,
1990011,4,TUP,BS Mechanical Engineering,1981,1987,0,,0,,,,,,,,,,,,,,,,,
1990011,5,TUP,Master of Technology,1999,2003,-,,0,,,,,,,,,,,,,,,,,
1990011,5,TUP,Doctor of Technology,2003,0,48,,0,,,,,,,,,,,,,,,,,
1990011,3,ARAULIO HIGH SCHOOL,Refrigeration and Air-Conditioning Course,1987,1987,0,,0,,,,,,,,,,,,,,,,,
1988001,2,ST. PAUL  COLLEGE-PARANAQUE,High School,1975,1979,0,,0,,,,,,,,,,,,,,,,,
1988001,4,PHIL. WOMENS UNIVERSITY,BS HRM,1979,1983,0,,0,,,,,,,,,,,,,,,,,
1988001,5,TECHNOLOGICAL UNIVERSITY OF THE PHILIPPINES,Master in Management,1999,2001,42,,0,,,,,,,,,,,,,,,,,
1988001,1,SOUTHEASTERN COLLEGE,Elementary,1969,1975,0,,0,,,,,,,,,,,,,,,,,
2012001,1,FORT BONIFACIO ELEM. SCHOOL,Elementary,1998,2001,0,,0,,,,,,,,,,,,,,,,,
2012001,2,FORT BONIFACIO HIGH SCHOOL,High School,2001,2005,0,,0,,,,,,,,,,,,,,,,,
2012001,4,RIZAL TECHNOLOGICAL UNIVERCITY,BS Mechanical Engineering,2005,2009,0,,0,,,,,,,,,,,,,,,,,
2016002,5,University of the Philippines-Diliman,Master of Science in Electrical Engineering,1992,1999,*,,none,,,,,,,,,,,,,,,,,
2016002,4,University of the Philippines-Diliman,Bachelor of Science in Electrical Engineering,1986,1991,*,,none,,,,,,,,,,,,,,,,,
2016002,2,Philippine Science High School,0,1982,1986,*,,none,,,,,,,,,,,,,,,,,
2016002,1,Tomas Del Rosario Academy,0,1975,1980,*,,none,,,,,,,,,,,,,,,,,
2016002,1,Balanga Elementary School,0,1980,1982,*,,Valedictorian,,,,,,,,,,,,,,,,,
2016003,4,University of Eastern Philippines,0,2005,2009,*,,none,,,,,,,,,,,,,,,,,
2016003,1,Geratag Elem. School,0,1995,2000,O,,none,,,,,,,,,,,,,,,,,
2016003,2,SanJose Technical HS,0,2000,2005,0,,none,,,,,,,,,,,,,,,,,
2016003,3,TESDA,0,2009,2009,0,,none,,,,,,,,,,,,,,,,,
2015006,4,Adamson University,B.S. in Computing Major in Computer Science,1996,2000,*,,Cum laude,,,,,,,,,,,,,,,,,
2015006,1,Holy Infant Academy,0,1986,1992,0,,none,,,,,,,,,,,,,,,,,
2015006,2,San Pedro HS,0,1992,1996,0,,none,,,,,,,,,,,,,,,,,
2011021,1,STO. NINO ELEMENTARY SCHOOL,0,1990,1996,0,,none,,,,,,,,,,,,,,,,,
2011021,2,SAINT COLUMBANS HIGH SCHOOL,High School,1996,2000,0,,none,,,,,,,,,,,,,,,,,
2011021,3,ARAULLO EYE VOC. SCHOOL,Refrigeration and Air-Conditioning Course,2007,2008,0,,none,,,,,,,,,,,,,,,,,
1983001,1,RAFAEL PALMA,Elementary,1965,1969,0,,0,,,,,,,,,,,,,,,,,
1983001,2,JOSE ABAD SANTOS P.E.P.T.,High School,1977,1990,0,,0,,,,,,,,,,,,,,,,,
1983001,3,INFOTECH COMPUTER SCHOOL,Computer Programming,1998,1998,12,,0,,,,,,,,,,,,,,,,,
1983002,1,Gubat Central School,Elementary,1961,1967,0,,0,,,,,,,,,,,,,,,,,
1983002,2,Gubat High School,High School,1970,1974,0,,0,,,,,,,,,,,,,,,,,
1983002,3,Sorsogon College of Arts and Trade,Machine Shop Technology,1977,1979,0,,0,,,,,,,,,,,,,,,,,
2010019,4,Far Eastern University,BS Psychology,2005,2009,0,,0,,,,,,,,,,,,,,,,,
2010019,2,Saint Marys Academy of Sto. Nino,0,2001,2005,0,,0,,,,,,,,,,,,,,,,,
2010019,1,Saint Marys Academy of Sto. Nino,0,1996,2001,0,,0,,,,,,,,,,,,,,,,,
2010019,3,Manila Times College,Paralegal,2009,2009,0,,0,,,,,,,,,,,,,,,,,
2010010,4,Philippine School of Business Asministration,BSBA Management,2003,2007,0,,0,,,,,,,,,,,,,,,,,
2010010,2,Marist School,High School,1997,2001,0,,0,,,,,,,,,,,,,,,,,
2010010,1,Marist School,Elementary,1991,2001,0,,0,,,,,,,,,,,,,,,,,
1977004,1,VALDERAMA ELEMENTARY SCHOOL,Elementary,1965,1971,0,,0,,,,,,,,,,,,,,,,,
1977004,2,VALDERAMA JUNIOR HIGH SCHOOL,High School,1971,1975,0,,0,,,,,,,,,,,,,,,,,
1977004,3,ST. ANTHONYS COLLEGE,Secretarial Course,1975,1976,0,,0,,,,,,,,,,,,,,,,,
1977004,4,MLQU,BS Chemical Engineering,1978,1988,0,,0,,,,,,,,,,,,,,,,,
1997001,1,Acacia Elementary School,Elementary,1976,1981,0,,0,,,,,,,,,,,,,,,,,
1997001,2,Mapua Institute of Technology,High School,1981,1985,0,,0,,,,,,,,,,,,,,,,,
1997001,4,Mapua Institute of Technology,BS Electronics and Communications Engineer,1985,1990,0,,0,,,,,,,,,,,,,,,,,
1997001,5,Mapua Institute of Technology,Mater of Science in ECE,2009,2011,0,,0,,,,,,,,,,,,,,,,,
1987002,1,SAN GREGORIO ELEM. SCHOOL,Elementary,1973,1979,0,,0,,,,,,,,,,,,,,,,,
1987002,2,BATANGAS STATE UNIVERSITY,High School,1979,1983,0,,U+and+I+CLUB+SCHOLAR%2F+2ND+HONOR,,,,,,,,,,,,,,,,,
1987002,3,TECHNOLOGICAL UNIVERSITY OFTHE PHILIPPINES,Computer Technology,1985,1989,0,,0,,,,,,,,,,,,,,,,,
2015011,4,Technology University of the Philippines,Bachelor of Science in Chemical Engineering,2010,2014,*,,none,,,,,,,,,,,,,,,,,
2015011,1,Pulot Center Elem. School ,0,0,0,0,,none,,,,,,,,,,,,,,,,,
2015011,2,Signal Village National HS,0,2005,2009,0,,none,,,,,,,,,,,,,,,,,
2015010,4,Immaculate Heart of Mary College,Bachelor of Science in Information Technology,2010,2014,*,,none,,,,,,,,,,,,,,,,,
2015010,1,San Antonio Elem. School ,0,2005,2006,0,,none,,,,,,,,,,,,,,,,,
2015010,2,Paranaque National HS,0,2006,2010,0,,none,,,,,,,,,,,,,,,,,
1980001,4,PAMANTASAN NG LUNGSOD NG MAYNILA,BS Mechanical Engineering,1975,1980,0,,0,,,,,,,,,,,,,,,,,
1980001,2,JOSE ABAD SANTOS,High School,1971,1975,0,,0,,,,,,,,,,,,,,,,,
1980001,3,JOSE ABAD SANTOS,Auto Mechanic,1977,1977,0,,0,,,,,,,,,,,,,,,,,
1980001,1,MAGAT SALAMAT ELEMENTARY SCHOOL,Elementary,1965,1971,0,,0,,,,,,,,,,,,,,,,,
2012006,1,GAWARAN ELEM. SCHOOL,Elementary,1995,1998,0,,0,,,,,,,,,,,,,,,,,
2012006,2,MUNTINLUPA NATIONAL HIGH SCHOOL,High School,1998,2002,0,,0,,,,,,,,,,,,,,,,,
2012006,4,TECHNOLOGICAL UNIVERSITY OF THEW PHILIPPINES,Instrumentation and Control Engineering Technology,2004,2007,0,,none,,,,,,,,,,,,,,,,,
2012006,4,INTERNATIONAL ELECTRONICS AND TECHNINCAL INSTITUTE,BS Information Technology,2002,2002,10,,none,,,,,,,,,,,,,,,,,
2018009,1,Manuel L.. Quezon Elementary School,0,1999,2005,n/a,,First+Honoroble+Mention,,,,,,,,,,,,,,,,,
2018009,2,Manuel S. Enverga University Foundation Candelaria Inc.,0,2005,2009,n/a,,Deped Scholarship,,,,,,,,,,,,,,,,,
2018009,3,Technical Skills System of Lucena INC ,Mechatronics Servicing NC-II,2012,2012,n/a,,none,,,,,,,,,,,,,,,,,
2018009,4,Southern Luzon State University Lucban Quezon ,BS Mechanical Engineering,2009,2014,n/a,,ONGKAUKO Scholarship ,,,,,,,,,,,,,,,,,
1992006,1,CALAGUIMAN ELEMENTARY SCOOL,Elementary,1979,1985,0,,none,,,,,,,,,,,,,,,,,
1992006,2,SAINT CATHERINE OF SIENNA ACADEMY,Secondary,1985,1989,0,,none,,,,,,,,,,,,,,,,,
1992006,3,BATAAN NATIONAL SCHOOL OF ARTS AND TRADE,Foundry Technology,1989,1991,0,,none,,,,,,,,,,,,,,,,,
2011024,1,SEVENTH DAY ADVENTIST,Elementary,1987,1991,0,,0,,,,,,,,,,,,,,,,,
2011024,2,PHILIPPINE EDUCATION PLACEMENT TEST,High School,1991,1995,0,,0,,,,,,,,,,,,,,,,,
2011024,3,ADULT NIGHT HIGH SCHOOL- LA SALLE GREENHILLS,Public Relation and Office Management,2002,2003,0,,0,,,,,,,,,,,,,,,,,
2011024,3,AMA COMPUTER LEARNING CENTER DIMASALANG LAON-LAON BRANCH,Computer System Design and Programming,1996,1998,0,,0,,,,,,,,,,,,,,,,,
1987003,2,BATANGAS NATIONAL HIGH SCHOOL,High School,1980,1984,0,,0,,,,,,,,,,,,,,,,,
1987003,1,BATANGAS SOUTH ELEMENTARY SCHOOL,0,1973,1979,0,,0,,,,,,,,,,,,,,,,,
1987003,4,MANUEL L. QUEZON UNIVERSITY,BS Mechanical Engineering,1989,1991,38,,0,,,,,,,,,,,,,,,,,
1989003,1,COGON ELEMENTARY SCHOOL,Elementary,1971,1977,0,,0,,,,,,,,,,,,,,,,,
1989003,2,BOHOL MATIONAL HIGH SCHOOL,High School,1977,1981,0,,0,,,,,,,,,,,,,,,,,
1989003,4,UNIVERSITY OF THE PHIL. - DILIMAN,BS Metallurgical Engineering,1981,1986,0,,0,,,,,,,,,,,,,,,,,
1989003,5,TOHOKU UNIVERSITY JAPAN,Doctorate in Engineering,1993,1996,0,,0,,,,,,,,,,,,,,,,,
2011013,1,STELLA MARIS ACADEMY OF DAVAO,Elementary,1988,1994,0,,8TH+HONORS,,,,,,,,,,,,,,,,,
2011013,2,STELLA MARIS ACADEMY OF DAVAO,High School,1994,1998,0,,CERTIFICATE+OF+MERIT,,,,,,,,,,,,,,,,,
2011013,4,SILLIMAN UNIVERSITY,BS Accountancy,1998,2001,0,,DEAN%27S+LIST,,,,,,,,,,,,,,,,,
2011013,4,UNVERSITY OF SOUTHEASTERN PHILS.,BS Economics,2001,2003,0,,CUM LAUDE,,,,,,,,,,,,,,,,,
1985002,1,NAMULDITAN ELEMENTARY SCHOOL,Elementary,1974,1980,0,,0,,,,,,,,,,,,,,,,,
1985002,2,DON BOSCO HIGH SCHOOL,High School,1980,1985,0,,0,,,,,,,,,,,,,,,,,
1985002,3,INFOTECH. SCHOOL,Computer Programming,1998,1999,12,,0,,,,,,,,,,,,,,,,,
2011034,1,EDUARDO BARETTO ELEM. SCHOOL,Elementary,1981,1987,0,,ACADEMIC+AWARD,,,,,,,,,,,,,,,,,
2011034,2,COLEGIO DE SAN JUAN DE LETRAN - CALAMBA,High School,1987,1991,0,,ACADEMIC+AWARD,,,,,,,,,,,,,,,,,
2011034,4,COLEGIO DE SAN JUAN DE LETRAN - CALAMBA,BS Mechanical Engineering,1991,1996,0,,0,,,,,,,,,,,,,,,,,
2011034,5,LAGUNA COLLEGE OF BUSINESS ARTS,Master of Science in Business Administration,2006,2007,21,,NONE,,,,,,,,,,,,,,,,,
2011015,1,Mari-Sur Elementary School,0,1989,1995,0,,Third Honorable Mention,,,,,,,,,,,,,,,,,
2011015,2,Romblon College of Fisheries,High School,1995,1999,0,,Third+Honorable+Mention,,,,,,,,,,,,,,,,,
2011015,4,Romblon State College,BS Business Administration,1999,2003,0,,0,,,,,,,,,,,,,,,,,
2010004,4,UNIVERSITY OF SANTO TOMAS,BS Mechanical Engineering,2000,2005,0,,0,,,,,,,,,,,,,,,,,
2010004,2,ST. ANDREWS SCHOOL,High School,1996,2000,0,,0,,,,,,,,,,,,,,,,,
2010004,1,ESCUELA DE SANLORENZO RUIZ,Elementary,1990,1996,0,,0,,,,,,,,,,,,,,,,,
1988002,1,ST. MARYS ACADEMY-PASAY,Elementary,1970,1976,0,,0,,,,,,,,,,,,,,,,,
1988002,2,ADAMSON UNIVERSITY -GIRLS HIGH SCHOOL,High School,1976,1980,0,,0,,,,,,,,,,,,,,,,,
1988002,4,ST. SCHOLASTICOS COLLEGE- MANILA,BS Commerce in HRM Management,1980,1985,0,,0,,,,,,,,,,,,,,,,,
1988002,5,Polytechnic University of the Philippines (PUP),Master in Public Administration,2010,2011,0,,0,,,,,,,,,,,,,,,,,
1976002,3,INFO TECH COMPUTER,Computer Programming,1998,1998,0,,0,,,,,,,,,,,,,,,,,
1976002,1,SAN JUAN CENTRAL SCHOOL,Elementary,1964,1970,0,,0,,,,,,,,,,,,,,,,,
1976002,2,SAN JUAN BRGY. HIGH SCHOOL,Secondary,1971,1974,0,,0,,,,,,,,,,,,,,,,,
1987006,1,GEN. A. RECARTE MEM. SCHOOL,Elementary,1970,1976,0,,0,,,,,,,,,,,,,,,,,
1987006,2,ST. AUGUSTINE SCHOOL,High School,1976,1980,0,,0,,,,,,,,,,,,,,,,,
1987006,4,SAINT PAUL COLLEGE OF MANILA,BS Commerce-Banking & Finance,1980,1984,0,,0,,,,,,,,,,,,,,,,,
2011027,2,ST. CATALINA COLLEGE,Secondary,1986,1990,0,,0,,,,,,,,,,,,,,,,,
2011027,4,UNIVERSITY OF THE PHILIPPINES LOS BANOS,BS Biology,1990,1996,0,,0,,,,,,,,,,,,,,,,,
2011027,1,ST. CATALINA COLLEGE,Elementary,1980,1986,0,,0,,,,,,,,,,,,,,,,,
2013004,1,CHUA ELEMENTARY SCHOOL,Elementary,1991,1996,0,,6TH HONORABLE MENTION,,,,,,,,,,,,,,,,,
2013004,2,KORONADAL NATIONAL COMPREHENSIVE HIGH SCHOOL,High School,1996,2000,0,,0,,,,,,,,,,,,,,,,,
2013004,4,NOTRE DAME OF MARBEL UNIVERSITY,BS Office Administration,2001,2005,0,,0,,,,,,,,,,,,,,,,,
2016006,5,Polytechnic University of the Philippines,Public Administration,2012,2015,*,,none,,,,,,,,,,,,,,,,,
1977002,1,MORENO ELEMENTARY SCHOOL,Elementary,1969,1974,0,,0,,,,,,,,,,,,,,,,,
1977002,2,HEROES MEMORIAL COLLEGE,High School,1974,1977,0,,0,,,,,,,,,,,,,,,,,
1977002,4,INFOTECH COMP. SCHOOL,Computer Programming,1998,1998,12,,0,,,,,,,,,,,,,,,,,
2010017,5,UNIVERSITY OF THE PHILIPPINES-QUEZON CITY,Master of Science Materials Science and Eng.,2005,0,29,,none,,,,,,,,,,,,,,,,,
2010017,4,Mapua Institute of Technology,BS Metallurgical Engineering,1995,2000,0,,0,,,,,,,,,,,,,,,,,
2010017,2,Mount Carmel High School,High School,1991,1994,0,,Salutatorian%2C+Leadership+,,,,,,,,,,,,,,,,,
2010017,1,Maria Aurora Central School,Elementary,1984,1990,0,,1st+HONORABLE+MENTION,,,,,,,,,,,,,,,,,
2017001,4,Camiguin Polytechnic State College,0,2003,2007,*,,none,,,,,,,,,,,,,,,,,
1990012,1,NATIONAL UNIVERSITY,Elementary,1970,1976,0,,0,,,,,,,,,,,,,,,,,
1990012,2,NATIONAL UNIVERSITY,High School,1976,1980,0,,0,,,,,,,,,,,,,,,,,
1990012,4,MAPUA INSTITUTE OF TECHNOLOGY,BS Mechanical Engineering,1980,1985,-,,0,,,,,,,,,,,,,,,,,
1990012,5,NAGAOKA UNIVERSITY OF TECHNOLOGY,Master in Engineering,1997,1999,-,,0,,,,,,,,,,,,,,,,,
1990012,5,NAGAOKA UNIVERSITY OF TECHNOLOGY,Doctor in Engineering,1999,2002,-,,0,,,,,,,,,,,,,,,,,
2018007,1,Notre Dame of GTR. MLA,Elementary,1980,1990,graduated,,none,,,,,,,,,,,,,,,,,
2018007,2,Notre Dame of GTR. MLA,SECONDARY,1990,1994,graduated,,none,,,,,,,,,,,,,,,,,
2018007,4,UP DILIMAN,Bachelor of Science in Chemical Engineering,1994,2005,graduated,,none,,,,,,,,,,,,,,,,,
1989004,1,Antonio Luna Elementary School,Elementary,1971,1977,0,,0,,,,,,,,,,,,,,,,,
1989004,4,Pamantasan ng Lungsod ng Maynila,BS Business Administration,1981,1985,0,,0,,,,,,,,,,,,,,,,,
1989004,2,Manuel Luis Quezon High School,High School,1977,1981,0,,0,,,,,,,,,,,,,,,,,
1989004,5,Pamantasan ng Lungsod ng Maynila,Master in  Business Administration,1996,2002,0,,0,,,,,,,,,,,,,,,,,
1994003,1,EAST REMBO ELEMENTARY SCHOOL,0,1970,1976,0,,0,,,,,,,,,,,,,,,,,
1994003,2,SOUTHERN RIZAL INSTITUTE,0,1976,1980,0,,0,,,,,,,,,,,,,,,,,
1994003,3,NATIONAL MANPOWER AND YOUTH COUNCIL,Basic Language Programming,1983,1983,0,,0,,,,,,,,,,,,,,,,,
1994003,4,TRINITY COLLEGE OF QUEZON CITY,BS Business Administration - 2nd yr,1983,1986,0,,0,,,,,,,,,,,,,,,,,
2011009,1,SAN FELIPE NERI PAROCHIAL SCHOOL,Elementary,1984,1990,0,,0,,,,,,,,,,,,,,,,,
2011009,2,SAN FELIPE NERI PAROCHIAL SCHOOL,High School,1990,1992,0,,0,,,,,,,,,,,,,,,,,
2011009,2,LAGRO HIGH SCHOOL,High School,1992,1994,0,,0,,,,,,,,,,,,,,,,,
2011009,4,POLYTECHNIC UNIVERSITY OF THE PHILIPPINES,Bachelor in Business Administration-Marketing,1994,1998,0,,0,,,,,,,,,,,,,,,,,
2011009,5,INTERNATIONAL ACADEMY OF MANAGEMENT AND ECONOMICS,Master in  Business Administration,2009,2010,12,,0,,,,,,,,,,,,,,,,,
2012013,1,Camelot Montesorri School,Elementary,1988,1994,0,,0,,,,,,,,,,,,,,,,,
2012013,1,Las Pinas Montessori School,Elementary,1994,1994,0,,0,,,,,,,,,,,,,,,,,
2012013,2,St. Andrews School,High School,1994,1998,0,,0,,,,,,,,,,,,,,,,,
2012013,3,Microcadd Technologies,Autocadd 2004 Level I & II,2004,2004,0,,0,,,,,,,,,,,,,,,,,
2012013,3,Meralco Foundation,Autocadd Industrial Motor Control,2008,2008,0,,0,,,,,,,,,,,,,,,,,
2012013,4,Mapua Institute of Technology,BS Electrical Engineering,1998,2003,0,,0,,,,,,,,,,,,,,,,,
1978002,1,Candelaria Elementary School,Elementary,1963,1969,0,,0,,,,,,,,,,,,,,,,,
1978002,2,St. Vincent Academy,High School,1969,1973,0,,0,,,,,,,,,,,,,,,,,
1978002,3,Manuel L. Quezon University,Secretarial Course,1975,1977,0,,0,,,,,,,,,,,,,,,,,
1981001,1,M. SALVADOR ELEM. SCHOOL,Elementary,1965,1970,0,,0,,,,,,,,,,,,,,,,,
1981001,2,C.M. RECTO HIGH SCHOOL,0,1971,1975,*,,0,,,,,,,,,,,,,,,,,
1981001,4,ARELLENO UNIVERSITY,BS Commerce - 2 years,1976,1977,0,,0,,,,,,,,,,,,,,,,,
1992009,1,Raphael Palma Elementary School,Elementary,1971,1975,0,,0,,,,,,,,,,,,,,,,,
1992009,2,Manila High School,High School,1975,1979,0,,0,,,,,,,,,,,,,,,,,
1992009,4,Technological Institute of the Philippines,BS Commerce-Banking,1979,1983,0,,0,,,,,,,,,,,,,,,,,
1989002,4,UNIVERSITY OF EAST,BS Electrical Engineering,1976,1978,111.5,,0,,,,,,,,,,,,,,,,,
1989002,2,RIZAL HIGH CSHOOL,High School,1972,1976,0,,0,,,,,,,,,,,,,,,,,
1989002,1,USUSAN ELEMENTARY SCHOOL,Elementary,1966,1972,0,,0,,,,,,,,,,,,,,,,,
1990006,2,BLESSED TRINITY HIGH SCHOOL,High School,1981,1985,0,,0,,,,,,,,,,,,,,,,,
1990006,1,TALIBON ELEMENTARY SCHOOL,Elementary,1975,1981,0,,0,,,,,,,,,,,,,,,,,
1990006,4,DIVINE WORD COLLEGE,BS Commerce-Accounting,1985,1989,0,,0,,,,,,,,,,,,,,,,,
1992001,1,Sienia College/ San Sebastian College Angelicum School,Elementary,1967,1974,0,,0,,,,,,,,,,,,,,,,,
1992001,2,Angelicum  School,High School,1974,1978,0,,0,,,,,,,,,,,,,,,,,
1992001,4,Mapua Institue of Technology,BS Metallurgical Engineering,1978,1983,0,,0,,,,,,,,,,,,,,,,,
2016007,1,San Lorenzo Elementary School,None,1995,2001,-,,0,,,,,,,,,,,,,,,,,
2016007,2,Muntinlupa Science High School,None,2001,2005,-,,0,,,,,,,,,,,,,,,,,
2016007,4,University of the Philippines Diliman,0,2005,2010,0,,0,,,,,,,,,,,,,,,,,
2016007,5,University of the Philippines Diliman,0,2013,--,0,,0,,,,,,,,,,,,,,,,,
2014008,4,University of the Philippines-Diliman,0,2004,2009,*,,none,,,,,,,,,,,,,,,,,
2014008,1,Bardias Elementary School,0,1994,2000,*,,none,,,,,,,,,,,,,,,,,
2014008,2,San Miguel National High School,0,2000,2004,*,,none,,,,,,,,,,,,,,,,,
1980002,1,RAFAEL PALMA ELEMENTARY SCHOOL,Elementary,1967,1973,0,,0,,,,,,,,,,,,,,,,,
1980002,2,MANILA HIGHSCHOOL,High School,1973,1977,0,,0,,,,,,,,,,,,,,,,,
1980002,3,TECHNOLOGICAL UNIVERSITY OF THE PHILIPPINES,Electrical Technology,1977,1980,0,,0,,,,,,,,,,,,,,,,,
1988003,1,MARULAS ELEMENTARY SCHOOL,Elementary,1966,1972,0,,0,,,,,,,,,,,,,,,,,
1988003,2,UNIVERSITY OF THE EAST,High School,1972,1976,0,,0,,,,,,,,,,,,,,,,,
1988003,4,UNIVERSITY OF THE EAST,BS Mechanical Engineering,1976,1981,0,,0,,,,,,,,,,,,,,,,,
1992004,1,QUINANGYANA ELEMENTARY SCHOOL,Elementary,1975,1981,0,,VALEDICTORIAN,,,,,,,,,,,,,,,,,
1992004,2,FILAMER CHRISTIAN  INSTITUTE-ROXAS CITY,High School,1981,1985,0,,MODEL+PUPIL+AND+HONOR+STUDENT,,,,,,,,,,,,,,,,,
1992004,4,WESTERN INSTITUTE OF TECHNOLOGY-ILOILO CITY,BS Mechanical Engineering,1985,1990,0,,MOST OUTSTANDING GRADUATE IN MECHANICAL ENGINEERING,,,,,,,,,,,,,,,,,
1992004,5,UNIVERSITY OF THE PHILIPPINES-DILIMANQUEZON CITY,Master in Technology Management,1999,2000,31,,UNIVERSITY+SCHOLAR,,,,,,,,,,,,,,,,,
2010021,1,SILANGAN ELEMENTARY SCHOOL,Elementary,1995,2001,0,,0,,,,,,,,,,,,,,,,,
2010021,2,BIGAA NATIONAL HIGH SCHOOL,High School,2001,2005,0,,0,,,,,,,,,,,,,,,,,
2010021,4,Polytechnic University of the Philippines (PUP) STA. ROSA,Bachelor in Secondary Education,2005,2010,0,,0,,,,,,,,,,,,,,,,,
2018012,1,Tadoc Elementary School,0,1998,2004,n/a,,none,,,,,,,,,,,,,,,,,
2018012,2,San Carlos College,0,2004,2008,n/a,,none,,,,,,,,,,,,,,,,,
2018012,4,University of Luzon,BS Mechanical Engineering,2008,2013,n/a,,none,,,,,,,,,,,,,,,,,
1984003,1,Sta. Elena Elementary School,Elementary,1975,1980,0,,0,,,,,,,,,,,,,,,,,
1984003,2,ST. Annes Catholic High School,Secondary,1980,1984,0,,0,,,,,,,,,,,,,,,,,
1984003,4,Manuel L. Queezon University,BS Mechanical Engineering,1984,0,29,,none,,,,,,,,,,,,,,,,,
2011010,5,Capiz State University,0,2004,2008,*,,none,,,,,,,,,,,,,,,,,
2011010,1,MAMBUSAO ELEM. SCHOOL,0,1984,1990,*,,none,,,,,,,,,,,,,,,,,
2011010,2,PANAY STATE POLYTECHNIC,Secondary,1990,1994,0,,none,,,,,,,,,,,,,,,,,
2011010,3,AMA COMPUTER LEARNING,0,2011,2013,*,,none,,,,,,,,,,,,,,,,,
2011010,4,Panay State Polytechnic College,0,1994,1999,*,,none,,,,,,,,,,,,,,,,,
2015012,3,Marikina Institute of Science and Technology,0,1988,1991,*,,none,,,,,,,,,,,,,,,,,
2017004,4,Philippine Normal University,Bachelor of Science in Psychology,1992,1996,Graduate,,none,,,,,,,,,,,,,,,,,
2017004,1,TIMOTEO PAEZ ELEMENTARY SCHOOL,0,1982,1988,-,,none,,,,,,,,,,,,,,,,,
2017004,2,PASAY CITY EAST HIGH SCHOOL,0,1988,1992,-,,none,,,,,,,,,,,,,,,,,
2017004,3,TRAINING FOR EXCELLENCE CORPORATION,0,2008,2008,-,,none,,,,,,,,,,,,,,,,,
1990002,1,Rafael Palma Elementary School Manila,Elementary,1966,1972,0,,0,,,,,,,,,,,,,,,,,
1990002,2,Manila High School,High School,1972,1976,0,,0,,,,,,,,,,,,,,,,,
1990002,3,Guzman Institue of Technology,Refrigeration and Air-Conditioning Course,1981,1982,0,,0,,,,,,,,,,,,,,,,,
1990002,4,University of Eastern Philippines,BS Agricultural Engineering,1976,0,19,,0,,,,,,,,,,,,,,,,,
2018003,1,Rafael Palma Elem. School,Elementary,1991,1996,0,,none,,,,,,,,,,,,,,,,,
2018003,2,Manila HS,SECONDARY,1996,2001,0,,none,,,,,,,,,,,,,,,,,
2018003,4,Technology University of the Philippines,Mechanical Production Engineering Technology,2001,2005,0,,none,,,,,,,,,,,,,,,,,
2017003,1,SAN RAFAEL PRIMARY SCHOOL,0,0,0,-,,none,,,,,,,,,,,,,,,,,
2017003,2,RAMOS NATIONAL HIGH SCHOOL,0,2005,2009,-,,none,,,,,,,,,,,,,,,,,
2017003,4,TAGUIG CITY UNIVERSITY,0,2011,2015,0,,none,,,,,,,,,,,,,,,,,
2018002,1,PAGBILAO CENTRAL ELEMENTARY SCHOOL,Elementary,2001,2007,*,,THIRD HONORABLE MENTION,,,,,,,,,,,,,,,,,
2018002,2,TALIPAN NATIONAL HIGH SCHOOL,SECONDARY,2007,2011,*,,WITH HONORS,,,,,,,,,,,,,,,,,
2018002,4,SOUTHERN LUZON STATE UNIVERSITY,Bachelor of Science in Computer Engineering,2011,2016,*,,none,,,,,,,,,,,,,,,,,
2017007,1,FORT BONIFACIO ELEMENTARY SCHOOL,Elementary,1999,2004,*,,none,,,,,,,,,,,,,,,,,
2017007,2,FORT BONIFACIO HIGH SCHOOL,SECONDARY,2004,2008,*,,none,,,,,,,,,,,,,,,,,
2017007,4,TECHNOLOGICAL UNIVERSITY OF THE PHILIPPINES,Bachelor of Engineering,2012,2014,*,,none,,,,,,,,,,,,,,,,,
2011036,1,NORTH DAANG HARI ELEM. SCHOOL,0,1989,1990,*,,0,,,,,,,,,,,,,,,,,
2011036,4,POLYTECHNIC UNIVERSITY OF THE PHILIPPINES,BS Mechanical Engineering,1995,2000,0,,0,,,,,,,,,,,,,,,,,
2011036,2,THE SISTERS OF MARY,High School,1990,1994,0,,0,,,,,,,,,,,,,,,,,
2011036,5,Technology University of the Philippines Manila,0,0,0,27,,none,,,,,,,,,,,,,,,,,
2011014,2,PHILIPPINE NORMAL UNIVERSITY,High School,1998,2002,0,,0,,,,,,,,,,,,,,,,,
2011014,1,GEN. M. HIZON ELEMENTARY SCHOOL,Elementary,1992,1998,0,,0,,,,,,,,,,,,,,,,,
2011014,4,PAMANTASAN NG LUNGSOD NG MAYNILA,BS Mechanical Engineering,2002,2008,0,,0,,,,,,,,,,,,,,,,,
1985008,1,Victoria West Central School,Elementary,1966,1971,0,,0,,,,,,,,,,,,,,,,,
1985008,2,Victoria High School,High School,1971,1975,0,,0,,,,,,,,,,,,,,,,,
1985008,3,Infotech Technical School,Computer Programming,1998,1999,12,,0,,,,,,,,,,,,,,,,,
2012007,1,PALASAN ELEMENTARY SCHOOL,Elementary,1982,1988,0,,0,,,,,,,,,,,,,,,,,
2012007,2,PEDRO GUEVARRA NATIONAL HIGH SCHOOL,High School,1988,1992,0,,0,,,,,,,,,,,,,,,,,
2012007,3,PEOPLES ELECTRONICS SERVICING,Electrical Technology,1989,1990,0,,0,,,,,,,,,,,,,,,,,
2012007,4,MAPUA INSTITUTE OF TECHNOLOGY,BS Electrical Engineering,1992,1997,0,,0,,,,,,,,,,,,,,,,,
1990005,1,Cuenca Central Elementary School,Elementary,1975,1981,0,,0,,,,,,,,,,,,,,,,,
1990005,2,Cuenca Institute,High School,1981,1986,0,,0,,,,,,,,,,,,,,,,,
1990005,3,Don Bosco Technical School - Makati,Mechanical Technology,1989,1990,0,,Technical+Execellence,,,,,,,,,,,,,,,,,
2015002,1,Fort Bonifacio Elem. School,0,1997,2002,0,,none,,,,,,,,,,,,,,,,,
2015002,4,Rizal Technology University ,0,2006,2011,*,,none,,,,,,,,,,,,,,,,,
2015002,2,Fort Bonifacio HS,0,2002,2006,0,,none,,,,,,,,,,,,,,,,,
2015002,3,Meralco Foundation,0,2013,2013,0,,none,,,,,,,,,,,,,,,,,
2011001,1,LAKANDULA ELEMENTARY SCHOOL,Elementary,1980,1984,0,,0,,,,,,,,,,,,,,,,,
2011001,1,HOLY INFANT ACADEMY,Elementary,1984,1986,0,,0,,,,,,,,,,,,,,,,,
2011001,2,HOLY INFANT ACADEMY,High School,1986,1990,0,,0,,,,,,,,,,,,,,,,,
2011001,4,MAPUA INSTITUTE OF TECHNOLOGY,BS Industrial Engineering,1990,1999,0,,0,,,,,,,,,,,,,,,,,
1978005,1,BARANGKA ELEMENTARY SCHOOL,Elementary,1966,1972,0,,0,,,,,,,,,,,,,,,,,
1978005,3,MSAT,Machine Shop Technology,1976,1978,0,,0,,,,,,,,,,,,,,,,,
1978005,4,CENTRAL COLLEGES OF THE PHILIPPINES,0,1980,1981,0,,0,,,,,,,,,,,,,,,,,
1978005,2,ROOSEVELT COLLEGE,High School,1972,1976,0,,0,,,,,,,,,,,,,,,,,
2014010,1,Teodoro M. Kalaw Memorial School,0,1993,1999,*,,Salutatorian,,,,,,,,,,,,,,,,,
2014010,2,The Mabini Academy,0,1999,2003,*,,none,,,,,,,,,,,,,,,,,
2014010,4,Batangas State University,Bachelor of Arts,2003,2007,*,,none,,,,,,,,,,,,,,,,,
2014010,5,DE LA SALLE UNIVERSITY-MANILA,0,2012,0,*,,none,,,,,,,,,,,,,,,,,
1994001,1,San Fransisco Elementary School,0,1978,1980,*,,Salutatorian,,,,,,,,,,,,,,,,,
1994001,2,Sacata National High School,High School,1980,1984,0,,1st+Honorable+Mention,,,,,,,,,,,,,,,,,
1994001,4,Far Eastern University,BS Mechanical Engineering,1984,1989,0,,0,,,,,,,,,,,,,,,,,
1994001,5,Technological University of the Philippines,Master of Technology Management,1999,2000,30,,none,,,,,,,,,,,,,,,,,
1994002,1,Rizal Elementary School,Elementary,1977,1978,0,,0,,,,,,,,,,,,,,,,,
1994002,1,UNIVERSITY OF NEGROS OCCIDENTAL- RECOLETOS,Elementary,1978,1983,0,,0,,,,,,,,,,,,,,,,,
1994002,4,UNIVERSITY OF NEGROS OCCIDENTAL- RECOLETOS,BS Chemical Engineering,1987,1992,0,,0,,,,,,,,,,,,,,,,,
1994002,2,UNIVERSITY OF NEGROS OCCIDENTAL- RECOLETOS,High School,1983,1987,0,,0,,,,,,,,,,,,,,,,,
1994002,5,UNIVERSITY OF THE PHIL. - DILIMAN,Master of Technology Management,2008,2010,0,,0,,,,,,,,,,,,,,,,,
2012009,1,Dian-ay Elementary School,Elementary,1989,1995,-,,0,,,,,,,,,,,,,,,,,
2012009,2,Dian-ay National High School,High School,1995,1999,-,,0,,,,,,,,,,,,,,,,,
2012009,3,TESDA,Plumbing,2011,2011,0,,0,,,,,,,,,,,,,,,,,
2012009,4,Northern Negros State College of Science and Technology,BS Agriculttural Technology,1999,2001,86,,0,,,,,,,,,,,,,,,,,
2012009,4,Taguig City University,BS Electrical Engineering,2011,0,78,,0,,,,,,,,,,,,,,,,,
2012009,3,TESDA,NCII Mechatronics Servicing,2014,2014,-,,none,,,,,,,,,,,,,,,,,
1992002,1,RIMOS DEL NORTE COMMUNITY SCHOOLl,Elementary,1977,1983,0,,4th+Honor,,,,,,,,,,,,,,,,,
1992002,2,STA. CATALINA ACADEMY,High School,1983,1987,0,,none,,,,,,,,,,,,,,,,,
1992002,3,MARIKINE INSITUTE OF SCIENCE AND TECHNOLOGY,Machine Shop Technology,1990,1990,0,,none,,,,,,,,,,,,,,,,,
2014006,1,ASSUMPTION SCHOOL OF DAVAO,Elementary,1977,1978,-,,none,,,,,,,,,,,,,,,,,
2014006,2,LICEO DELOS BANOS,Secondary,1980,1982,-,,none,,,,,,,,,,,,,,,,,
2014006,4,LAGUNA COLLEGE,Bachelor of Science in Civil Engineering,1982,1984,60,,none,,,,,,,,,,,,,,,,,
2014006,4,COLLEGIO DE SAN JUAN LETRAN,BS. I.E,1984,1988,-,,none,,,,,,,,,,,,,,,,,
2014006,4,PAMANTASANG LUNGSOD NG MAYNILA,BS in Management MBA Program,1992,1994,27,,none,,,,,,,,,,,,,,,,,
2014006,4,University of the Philippines ,Master of Management - Business Management,2005,2008,-,,none,,,,,,,,,,,,,,,,,
2014002,1,FORT BONIFACIO ELEM. SCHOOL,Elementary,1996,2002,-,,0,,,,,,,,,,,,,,,,,
2014002,2,WESTERN BICUTAN NATIONAL HIGH SCHOOL,High School,2002,2006,0,,SALUTATORIAN,,,,,,,,,,,,,,,,,
2014002,4,UNIVERSITY OF THE PHILS. -Q.C.,BS Metallurgical Engineering,2006,2011,0,,0,,,,,,,,,,,,,,,,,
2017002,1,BARANGAY PINAGKAMALIGAN ELEMENTARY SCHOOL,Elementary,2000,2004,*,,none,,,,,,,,,,,,,,,,,
2017002,2,BUREAU OF ALTERNATIVE LEARNING SYSTEM,SECONDARY,2012,2013,*,,none,,,,,,,,,,,,,,,,,
2017002,3,TAGUIG CITY UNIVERSITY,Bachelor of Science in Industrial Technology,2013,2017,*,,none,,,,,,,,,,,,,,,,,
2011030,1,CAMALIG ELEMENTARY SCHOOL,Elementary,1988,1994,0,,Fourth+Honor,,,,,,,,,,,,,,,,,
2011030,2,MEYCAUAYAN COLLEGE,High School,1994,1998,0,,0,,,,,,,,,,,,,,,,,
2011030,4,MANILA MONTESSORI COLLEGE,BS in Computer Science,1999,2001,0,,none,,,,,,,,,,,,,,,,,
2011030,4,DE LA SALLE ARANETA UNIVERSITY,BS Computer Science,2001,2003,0,,none,,,,,,,,,,,,,,,,,
2011026,1,SAN ILDEFONSO CALLEGE,Elementary,1991,1998,0,,0,,,,,,,,,,,,,,,,,
2011026,2,OUR LADY OF PEACE SCHOOL,High School,1998,2002,0,,0,,,,,,,,,,,,,,,,,
2011026,4,UNIVERSITY OF THE PHILIPPINES DILIMAN,BS Metallurgical Engineering,2003,2009,0,,0,,,,,,,,,,,,,,,,,
2016011,1,Gogon Elem. School,Elementary,1976,1983,n/a,,none,,,,,,,,,,,,,,,,,
2016011,2,Anislag National High School,Secondary,1983,1987,n/a,,none,,,,,,,,,,,,,,,,,
2016011,3,Bicol University School of Arts and Trade,Electronics,1987,1989,89,,none,,,,,,,,,,,,,,,,,
2016011,4,Bi,Electronics,1987,1989,107,,none,,,,,,,,,,,,,,,,,
2010003,4,Samar State University,BS Technician Education,2000,2004,0,,none,,,,,,,,,,,,,,,,,
2010003,2,The Sisters of Mary Boystown School,High School,1995,1999,0,,0,,,,,,,,,,,,,,,,,
2010003,1,Villareal Central Elementary School,Elementary,1989,1985,0,,0,,,,,,,,,,,,,,,,,
2015014,4,University of Perpetual Help System,B.S. in Business Management major in Management,1981,1985,*,,none,,,,,,,,,,,,,,,,,
2015014,1,San Jose Elementary School,0,1982,1988,*,,none,,,,,,,,,,,,,,,,,
2015014,2,San Jose National High School,0,1988,1992,*,,none,,,,,,,,,,,,,,,,,
2013007,1,LILIW CENTRAL SCHOOL,Elementary,1971,1977,0,,none,,,,,,,,,,,,,,,,,
2013007,2,LILIW ACADEMY,High School,1977,1981,0,,none,,,,,,,,,,,,,,,,,
2013007,3,LAGUNA SCHOOL OF ARTS AND TRADES,Refrigeration and Air-Conditioning Course,1981,1983,0,,none,,,,,,,,,,,,,,,,,
2013007,3,NATIONAL MANPOWER AND YOUTH COUNCIL,Building Wiring Electrician,1989,1990,0,,none,,,,,,,,,,,,,,,,,
2017005,4,Polytechnic University of the Philippines- Taguig,Bachelor of Accountancy,2001,2005,Graduate,,none,,,,,,,,,,,,,,,,,
2017005,1,St. Rita College Sucat Paaranaque,0,1990,1997,0,,none,,,,,,,,,,,,,,,,,
2017005,2,University of Sto. Tomas Espana,0,1997,2001,0,,none,,,,,,,,,,,,,,,,,
2003002,1,Junior Cultural Academy,Elementary,1981,1987,0,,0,,,,,,,,,,,,,,,,,
2003002,2,Cebu Eastern College,High School,1987,1991,0,,0,,,,,,,,,,,,,,,,,
2003002,4,La Consolacion College,BSBA Accounting,1991,1992,0,,0,,,,,,,,,,,,,,,,,
2003002,4,San Jose College,BSBA Accounting,1992,1995,0,,0,,,,,,,,,,,,,,,,,
2003002,5,Polytechnic University of the Philippines,Master in Public Administration,2002,2003,0,,0,,,,,,,,,,,,,,,,,
1992005,1,BELISON CENTRAL SCHOOL,Elementary,1963,1969,0,,0,,,,,,,,,,,,,,,,,
1992005,2,BELISON COMMUNITY HIGH SCHOOL,High School,1969,1973,0,,0,,,,,,,,,,,,,,,,,
1992005,4,UNIVERSITY OF SAN AGUSTIN,BS Mechanical Engineering,1973,1978,0,,0,,,,,,,,,,,,,,,,,
1992005,5,UNIVERSITY OF SAN AGUSTIN,Master in  Business Administration,1993,1994,12,,0,,,,,,,,,,,,,,,,,
2013001,1,PIDDIG SOUTH CENTRAL,Elementary,1992,1998,0,,DESERVING PUPIL,,,,,,,,,,,,,,,,,
2013001,2,MAKATI HIGH SCHOOL,High School,1998,2002,0,,OUTSTANDING+STUDENT,,,,,,,,,,,,,,,,,
2013001,4,RIZAL TECHNOLOGICAL UNIVERSITY,BS Mechanical Engineering,2002,2007,0,,GRADUATE+SCHOLAR,,,,,,,,,,,,,,,,,
1990014,1,HIGHWAY HILLS ELEMENTARY SCHOOL,Elementary,1971,1977,0,,0,,,,,,,,,,,,,,,,,
1990014,2,ARRELANO UNIVERSITY PLARIDEL HIGH SCHOOL,High School,1977,1981,0,,0,,,,,,,,,,,,,,,,,
1990014,4,TECHNOLOGICAL UNIVERSITY OF THE PHILIPPINES,BS Mechanical Engineering,1981,1996,0,,0,,,,,,,,,,,,,,,,,
1990014,5,DE LA SALLE UNIVERSITY - MANILA,Master in Mechanical Engineering,1993,1995,0,,0,,,,,,,,,,,,,,,,,
1990014,5,TECHNOLOGICAL UNIVERSITY OF THE PHILIPPINES,Doctor of Technology,1997,2001,0,,0,,,,,,,,,,,,,,,,,
2016008,4,De La Salle Lipa-Tertiary School,Bachelor of Science in Commerce-Business Mgnt,1998,2002,*,,none,,,,,,,,,,,,,,,,,
2016008,1,Santo Nino Formation School,0,1988,1992,*,,Achievement,,,,,,,,,,,,,,,,,
2016008,1,De La Salle Lipa-Unified School,0,1992,1994,*,,none,,,,,,,,,,,,,,,,,
2016008,2,De La Salle Lipa,0,1994,1998,*,,none,,,,,,,,,,,,,,,,,
2016008,5,De La Salle Lipa-Graduate School,Master in Technology Management,2004,2005,15,,none,,,,,,,,,,,,,,,,,
2016008,5,Ateneo De Manila University,Master in Public Management,2012,2013,*,,Silver Medalist,,,,,,,,,,,,,,,,,
1989001,1,MABALOR ELEMENTARY SCHOOL,Elementary,1973,1979,0,,0,,,,,,,,,,,,,,,,,
1989001,2,TAYSAN HIGH SCHOOL,High School,1979,1983,0,,0,,,,,,,,,,,,,,,,,
1989001,3,INTERNATIONAL ELECTRONIC TECHNOLOGY INSTITUE,Computer Technician and System Management,1992,1994,0,,0,,,,,,,,,,,,,,,,,
2008003,1,SAUYO ELEMENTARY SCHOOL,Elementary,1985,1991,0,,VALEDICTORIAN,,,,,,,,,,,,,,,,,
2008003,4, UP DILIMAN,0,1995,2003,-,,0,,,,,,,,,,,,,,,,,
2008003,2,BAESA ADVENTIST ACADEMY,High School,1991,1995,0,,ACHIEVER,,,,,,,,,,,,,,,,,
1995004,1,ST. BRIDGETS COLLEGE BATANGAS CITY OUR LADY OF PEACE SCHOOL,Elementary,1978,1981,0,,0,,,,,,,,,,,,,,,,,
1995004,2,OUR LADY OF PEACE SCHOOL ANTIPOLO CITY,High School,1981,1985,0,,DEPORTMENT+DUTY+AWARD,,,,,,,,,,,,,,,,,
1995004,4,MAPUA INSTITUE OF TECHNOLOGY INTRAMUROS MANILA,BS Mechanical Engineering,1985,1991,0,,0,,,,,,,,,,,,,,,,,
2010012,2,IMMACULATE HEART ACADEMY,High School,1981,1985,0,,0,,,,,,,,,,,,,,,,,
2010012,1,MARALAG ELEMENTARY SCHOOL,Elementary,1975,1981,0,,0,,,,,,,,,,,,,,,,,
1995006,1,Bangui Central Elementary School,Elementary,1975,1981,0,,0,,,,,,,,,,,,,,,,,
1995006,2,St. Laurence Academy,High School,1981,1985,0,,0,,,,,,,,,,,,,,,,,
1995006,4,Philippine School of Business Administration,BS Business Administration-Acctg,1986,1994,0,,0,,,,,,,,,,,,,,,,,
1996001,1,BONIFACIO ELEMENTARY SCHOOL,Elementary,1974,1980,0,,0,,,,,,,,,,,,,,,,,
1996001,2,PASAY CITY WEST HIGH SCHOOL,High School,1980,1984,0,,0,,,,,,,,,,,,,,,,,
1996001,4,GUZMAN INSTITUTE OF TECHNOLOGY MANILA,0,1984,1986,*,,0,,,,,,,,,,,,,,,,,
1990004,1,BONIFACIO ELEMENTARY SCHOOL,Elementary,1965,1971,0,,HONORABLE+MENTION,,,,,,,,,,,,,,,,,
1990004,2,ARAULLO HIGH SCHOOL,0,1971,1975,0,,0,,,,,,,,,,,,,,,,,
1990004,4,FEATI UNIVERSITY,BS Mechanical Engineering,1976,1981,0,,0,,,,,,,,,,,,,,,,,
1990004,5,PLM,Master in  Business Administration,1985,1988,0,,none,,,,,,,,,,,,,,,,,
1990004,5,TUP- MANILA,PH.D. in Technology Management,1999,2003,0,,none,,,,,,,,,,,,,,,,,
1990004,5,PLM,Master in Engineering Management,1990,1992,0,,none,,,,,,,,,,,,,,,,,
1994004,5,PAMANTASAN NG LUNGSOD NG MAYNILA,Master in Engineering Management,1988,2000,0,,THESIS+GRANTEE-DOST,,,,,,,,,,,,,,,,,
1994004,4,PAMANTASAN NG LUNGSOD NG MAYNILA,BS Chemical Engineering,1980,1985,0,,0,,,,,,,,,,,,,,,,,
1994004,2,D.T ALONZO HIGH SCHOOL,High School,1976,1980,0,,0,,,,,,,,,,,,,,,,,
1994004,1,MALILIPOT ELEM. SCHOOL,Elementary,1970,1976,0,,0,,,,,,,,,,,,,,,,,
2014007,1,MARIKINA CATHOLIC SCHOOL,Elementary,1995,2001,-,,none,,,,,,,,,,,,,,,,,
2014007,2,MARIKINA SCIENCE HIGH SCHOOL,Secondary,2001,2005,-,,none,,,,,,,,,,,,,,,,,
2014007,4,POLYTHECNIC UNIVERSITY OF THE PHILS. - MANILA,Bachelor of Science in Chemistry,2005,2009,-,,BEST IN THESIS,,,,,,,,,,,,,,,,,
2014007,5,DE LA SALLE UNIVERSITY-MANILA,Master of Science in Chemistry,2014,0,*,,none,,,,,,,,,,,,,,,,,
2015004,1,Mapandan Central School,0,1989,1995,*,,with Honor,,,,,,,,,,,,,,,,,
2015004,2,Mapandan Academy,0,1995,1999,*,,with Honor,,,,,,,,,,,,,,,,,
2015004,4,Computronix College,Bachelor of Science in Computer Science,1999,2003,*,,Deans Lister,,,,,,,,,,,,,,,,,
1990003,1,MAQUILING ELEMENTARY SCHOOL,Elementary,1972,1978,0,,none,,,,,,,,,,,,,,,,,
1990003,2,CANOSSA ACADEMY,High School,1978,1982,0,,none,,,,,,,,,,,,,,,,,
1990003,4,Letran College,BS Mechanical Engineering,1982,1987,0,,none,,,,,,,,,,,,,,,,,
1990003,5,Development Academy of the Philippines,Master in Public Management,2000,2001,0,,none,,,,,,,,,,,,,,,,,
2011035,1,ZION CENTER OF KNOWLEDGE SCHOOL,Elementary,1992,1998,0,,0,,,,,,,,,,,,,,,,,
2011035,2,ST. LOUIS SCHOOL DON BOSCO,High School,1998,2003,0,,0,,,,,,,,,,,,,,,,,
2011035,3,NEGROS ORIENTAL STATE UNIVERSITY,Diploma of Technology,2003,2006,0,,0,,,,,,,,,,,,,,,,,
2011035,4,NEGROS ORIENTAL STATE UNIVERSITY,BS Technological Education,2006,2007,0,,Presidential+Technology+Award+%26+Presidential+Academic+Award,,,,,,,,,,,,,,,,,
2015007,5,Laguna Colleger of Business and Arts,Master in  Business Administration,2000,2005,32,,none,,,,,,,,,,,,,,,,,
1993007,1,Perpetual Help College of Rizal,Elementary,1978,1982,0,,0,,,,,,,,,,,,,,,,,
1993007,2,Perpetual Help College of Rizal,High School,1982,1986,0,,0,,,,,,,,,,,,,,,,,
1993007,4,St. Scholarticts College,BSBA Management,1987,1992,0,,0,,,,,,,,,,,,,,,,,
1976001,1,San Juan Elementary School,Elementary,1969,1970,0,,0,,,,,,,,,,,,,,,,,
1976001,2,San Juan Barangay High School,High School,1973,1974,0,,0,,,,,,,,,,,,,,,,,
1976001,3,INFO TECH,Computer Programming,1998,1999,12,,0,,,,,,,,,,,,,,,,,
1987007,1,Doyong Centro Elementary School,Elementary,1969,1975,0,,First+Honors,,,,,,,,,,,,,,,,,
1987007,2,Araullo High School,Secondary,1975,1979,0,,0,,,,,,,,,,,,,,,,,
1987007,4,Polytechnic University of the Philippines,BBM Management,1979,1983,0,,none,,,,,,,,,,,,,,,,,
2016004,3,Ilocos Norte College of Arts and Trades,0,2000,2004,*,,none,,,,,,,,,,,,,,,,,
2012002,1,SAN VICENTE ELEM.SCHOOL,Elementary,1996,2002,0,,0,,,,,,,,,,,,,,,,,
2012002,2,BINAN NATIONAL HIGH SCHOOL,High School,2002,2006,0,,0,,,,,,,,,,,,,,,,,
2012002,3,TECHNOLOGICAL UNIVERSITY OF THE PHILIPPINES,Instrumentation and Control Technology,2006,2010,0,,0,,,,,,,,,,,,,,,,,
2012002,4,TUP TAGUIG,Bachelor of Engineering,2013,2015,-,,none,,,,,,,,,,,,,,,,,
1978003,1,Aurora Elementary School,Elementary,1964,1970,0,,0,,,,,,,,,,,,,,,,,
1978003,2,Galasa High School,Secondary,1970,1974,n/a,,0,,,,,,,,,,,,,,,,,
1978003,3,Infotech Computer School,Computer Programming,1998,1999,12,,0,,,,,,,,,,,,,,,,,
2018010,1,DEL ROSARIO ELEMENTARY SCHOOL,Elementary,1999,2005,graduated,,none,,,,,,,,,,,,,,,,,
2018010,2,OAS POLYTECHNIC SCHOOL,SECONDARY,2005,2009,graduated,,none,,,,,,,,,,,,,,,,,
2018010,4,TAGUIG CITY UNIVERSITY,Bachelor of Science in Industrial Technology,2009,2013,graduated,,none,,,,,,,,,,,,,,,,,
1991001,4,MAPUA INSTITUTE OF TECHNOLOGY,BS Industrial Engineering,1985,1990,0,,0,,,,,,,,,,,,,,,,,
1991001,2,ST. JAMES ACADEMY,High School,1981,1985,0,,0,,,,,,,,,,,,,,,,,
1991001,1,ST. JAMES ACADEMY,Elementary,1975,1981,0,,0,,,,,,,,,,,,,,,,,
1991001,5,PAMANTASAN NG LUNGSOD NG MAYNILA,0,0,0,20,,0,,,,,,,,,,,,,,,,,
2012003,1,CAJIDIOCAN CENTRAL SCHOOL,Elementary,1989,1995,0,,0,,,,,,,,,,,,,,,,,
2012003,2,CAJIDIOCAN NATIONAL HIGH SCHOOL,High School,1995,1999,0,,0,,,,,,,,,,,,,,,,,
2012003,3,ROMBLON STATE COLLEGE,Computer Programming,1999,2000,0,,0,,,,,,,,,,,,,,,,,
2012003,4,ROMBLON STATE COLLEGE,BS Information Technology,2000,2004,0,,0,,,,,,,,,,,,,,,,,
1979002,4,P. M. I. College,Associate in Marine Engineering,1977,1978,0,,0,,,,,,,,,,,,,,,,,
1979002,1,Indang Elementary School,Elementary,1964,1969,0,,0,,,,,,,,,,,,,,,,,
1979002,2,Don Severino Agricultural College,High School,1970,1974,0,,0,,,,,,,,,,,,,,,,,
2012004,1,BONLIW ELEM. SCHOOL,Elementary,1992,1998,0,,0,,,,,,,,,,,,,,,,,
2012004,2,BONLIW NATIONAL HIGH SCHOOL,High School,1998,2002,0,,CLASS+VALEDICTORIAN,,,,,,,,,,,,,,,,,
2012004,4,TECHNOLOGICAL INSTITUTE OF THE PHILIPPINES,BS Electronics and Communications Engineer,2002,2007,0,,0,,,,,,,,,,,,,,,,,
2012004,5,MAPUA INSTITUTE OF TECHNOLOGY,Master in Elect & Communications Engineering,2009,2011,0,,BEST+THESIS,,,,,,,,,,,,,,,,,
1992008,1,Oas East Elementary School,Elementary,1969,1975,0,,0,,,,,,,,,,,,,,,,,
1992008,2,Oas East Standard High School,High School,1982,1986,0,,0,,,,,,,,,,,,,,,,,
1992008,3,Infotech Computer School Standard,Computer Programming,1998,1999,12,,none,,,,,,,,,,,,,,,,,
1994005,1,Bagong Tanyag Elementary School,0,1970,1976,0,,none,,,,,,,,,,,,,,,,,
1994005,2,Technical University of the Philippines,0,1976,1980,0,,none,,,,,,,,,,,,,,,,,
1994005,3,Cora Doloroso Career Center,Computer Secretarial,1989,1990,0,,none,,,,,,,,,,,,,,,,,
1994005,4,Philippines Christian University,BS Business Administration - Mgmt,1980,1984,0,,none,,,,,,,,,,,,,,,,,
1994005,4,TECHNOLOGICAL UNIVERSITY OF THE PHILS,B.S. in Industrial Education,1994,1995,18,,none,,,,,,,,,,,,,,,,,
1993003,1,CELEDONOI SALVADOR ELEMENTARYSCHOOL,Elementary,1976,1982,0,,0,,,,,,,,,,,,,,,,,
1993003,2,CARLOS P. GARCIA HIGH SCHOOL,High School,1982,1986,0,,0,,,,,,,,,,,,,,,,,
1993003,4,PAMANTASAN NG LUNGSOD NG MAYNILA,Bachelor of Management and Social Work,1987,1991,0,,0,,,,,,,,,,,,,,,,,
1987011,1,ANAKAN CENTRAL SCHOOL,Elementary,1971,1976,0,,none,,,,,,,,,,,,,,,,,
1987011,2,XAVIER UNN. HIGH SCHOOL,High School,1976,1980,0,,none,,,,,,,,,,,,,,,,,
1987011,4,MAPUA INSTITUTE OF TECHNOLOGY,BS Mechanical Engineering,1980,1985,0,,none,,,,,,,,,,,,,,,,,
1987011,5,XAVIER UNIVERSITY-ATENEO DE CAGAYAN,Master in  Business Administration,1991,1998,0,,none,,,,,,,,,,,,,,,,,
1987011,5,NETHERLANDS INTL. INST. FOR MANAGEMENT-MAASTRICHT SCHOOLOF MANAGEMENT (RVB),Exec. Prog. in MS:Tech. Transfer Management,1991,1991,0,,with+distinction,,,,,,,,,,,,,,,,,
1987011,5,KYOTO INSTITUTE OF TECHNOLOGY,Master in Mechanical and System Engineering,2000,2002,0,,none,,,,,,,,,,,,,,,,,
2016001,4,Rizal Technology University ,0,2005,2009,*,,none,,,,,,,,,,,,,,,,,
2016001,3,Don Bosco Technical Institute,0,2003,2004,*,,none,,,,,,,,,,,,,,,,,
2016001,2,Taguig National High School,0,1998,2002,*,,none,,,,,,,,,,,,,,,,,
2016001,1,Ricardo P. Cruz Sr. Elementary School,0,1993,1998,*,,none,,,,,,,,,,,,,,,,,
1985003,1,Francisco De Mesa Elementary School,Elementary,1972,1978,0,,none,,,,,,,,,,,,,,,,,
1985003,2,Muntinlupa National High School,High School,1978,1982,0,,none,,,,,,,,,,,,,,,,,
1985003,3,International Electronic and Technical institute,Refrigeration and Air-Conditioning Course,1983,1984,24,,none,,,,,,,,,,,,,,,,,
1990009,4,Adamson University,BSC Economics,1981,1986,0,,none,,,,,,,,,,,,,,,,,
1990009,5,Pamantasan Ng Lungsod ng Maynila,Master in  Business Administration,1993,1995,24,,none,,,,,,,,,,,,,,,,,
1990009,3,ASCII Computer Center,Computer Data Base,1986,1986,0,,none,,,,,,,,,,,,,,,,,
1990009,1,Nichols Air Base Elementary School,Elementary,1971,1977,0,,none,,,,,,,,,,,,,,,,,
1990009,2,Pasay City South High School,High School,1977,1981,0,,none,,,,,,,,,,,,,,,,,
2011028,1,RICARDO P. CRUZ SR. ELEM. SCHOOL,Elementary,1994,2000,-,,0,,,,,,,,,,,,,,,,,
2011028,2,GEN. RICARDO PAPA SR. MEMORIAL HIGH SCHOOL,High School,2000,2004,-,,0,,,,,,,,,,,,,,,,,
2011028,4,POLYTECHNIC UNIVERCITY OF THE PHILIPPINE STA. MESA MANILA,BS Industrial Engineering,2004,2009,-,,0,,,,,,,,,,,,,,,,,
1978001,1,Antipolo Elementary School,Elementary,1962,1968,0,,none,,,,,,,,,,,,,,,,,
1978001,2,Saint John Institute,High School,1969,1973,0,,none,,,,,,,,,,,,,,,,,
1978001,3,Infotech Computer School,Computer Programming,1998,1999,12,,none,,,,,,,,,,,,,,,,,
1993005,1,CARASUCHI ELEM. SCHOOL,Elementary,1979,1985,0,,none,,,,,,,,,,,,,,,,,
1993005,2,TAGAYTAY CITY HIGH SCHOOL,High School,1985,1989,0,,none,,,,,,,,,,,,,,,,,
1993005,4,UNIVERSITY OF MANILA,Building Construction Specialist,1989,1992,72,,none,,,,,,,,,,,,,,,,,
1979001,1,Lauren Elementary School,Elementary,1968,1975,0,,none,,,,,,,,,,,,,,,,,
1979001,2,Umingan Central High School,High School,1975,1978,0,,none,,,,,,,,,,,,,,,,,
1979001,3,Guzman Institute Technology,Electrical Technology,1980,1981,0,,none,,,,,,,,,,,,,,,,,
1979001,4,Infotech Computer School,Computer Programming,1998,1999,12,,none,,,,,,,,,,,,,,,,,
2010013,3,INFO TECH COMPUTER SCHOOL,Computer Programming,2011,2011,12,,none,,,,,,,,,,,,,,,,,
2010013,1,ALMARIO ELEMENTARY SCHOOL,Elementary,1978,1984,0,,none,,,,,,,,,,,,,,,,,
2010013,2,RAJA SOLIMAN HIGH SCHOOL,High School,1984,1988,0,,none,,,,,,,,,,,,,,,,,
2016012,1,ALMARO ELEMENTARY,Primary,1978,1984,-,,none,,,,,,,,,,,,,,,,,
2016012,2,RAHA SOLIMAN HS,Primary,1984,1988,*,,none,,,,,,,,,,,,,,,,,
1978009,1,PAKIL ELEMENTARY SCHOOL,Elementary,1963,1969,0,,none,,,,,,,,,,,,,,,,,
1978009,2,MARYKNOLL HIGH SCHOOL,High School,1969,1973,0,,none,,,,,,,,,,,,,,,,,
1978009,4,PHIL. NORMAL COLLEGE,Bachelor in Secondary Education,1973,1977,0,,none,,,,,,,,,,,,,,,,,
2014004,1,PAMPLONA ELEMENTARY SCHOOL,Elementary,1994,2000,-,,0,,,,,,,,,,,,,,,,,
2014004,2,TANZA NATIONAL TRADE SCHOOL,High School,2000,2004,-,,0,,,,,,,,,,,,,,,,,
2014004,4,CAVITE STATE UNIVERSITY,BS Industrial Engineering,2005,2010,-,,0,,,,,,,,,,,,,,,,,
2019002,1,POCTOL ELEMENTARY SCHOOL,Elementary,2001,2008,graduated,,none,,,,,,,,,,,,,,,,,
2019002,2,TIPAS NATIONAL HIGH SCHOOL,SECONDARY,2008,2012,graduated,,none,,,,,,,,,,,,,,,,,
2019002,4,POLYTECNIC UNIVERSITY OF THE PHILIPPINES MANILA,Bachelor of Science in Psychology,2012,2016,graduated,,none,,,,,,,,,,,,,,,,,
2018001,1,Damulog Elem. School,0,1984,1990,0,,none,,,,,,,,,,,,,,,,,
2018001,2,Old Damulog National High,0,1990,1995,0,,none,,,,,,,,,,,,,,,,,
2018001,4,St Joseph Institute of Technology Butuan City,BS CRIMINOLOGY,1995,1998,0,,none,,,,,,,,,,,,,,,,,
1987005,1,Fort Bonifacio Elementary School,Elementary,1966,1972,0,,none,,,,,,,,,,,,,,,,,
1987005,2,Fort Bonifacio high School,High School,1970,1976,0,,none,,,,,,,,,,,,,,,,,
1987005,4,INFO TECH COMPUTER SCHOOL,Computer Programming,1998,1999,12,,0,,,,,,,,,,,,,,,,,
1987005,3,DON BOSCO TECHNICAL INSTITUTE,Machine Shop Technology,1980,1981,0,,none,,,,,,,,,,,,,,,,,
1987014,1,St. Andrew School,Elementary,1972,1978,0,,none,,,,,,,,,,,,,,,,,
1987014,2,St. Andrew School,High School,1978,1982,0,,none,,,,,,,,,,,,,,,,,
1987014,5,ATENEO DE MANILA UNIVERSITY,Master in Public Management,2007,2008,0,,none,,,,,,,,,,,,,,,,,
1987014,4,MAPUA INSTITUTE OF TECHNOLOGY,BS Electronics and Communications Engineering,1982,1987,0,,none,,,,,,,,,,,,,,,,,
2011006,2,TAGUIG NATIONAL HIGH SCHOOL,Secondary,1997,2001,-,,none,,,,,,,,,,,,,,,,,
2011006,1,C.P.  STA. THERESA ELEMENTARY SCHOOL,Elementary,1991,1997,-,,none,,,,,,,,,,,,,,,,,
2011006,4,IETi COLLEGE INC.,Information and Management Technology,2001,2003,24,,none,,,,,,,,,,,,,,,,,
2015013,4,Sain Francis of Assisi College,Bachelor of Science in Computer Science,2004,2010,*,,Best in Software Design Documentation,,,,,,,,,,,,,,,,,
2015013,1,Our lady of the Lake School,0,1994,2000,*,,none,,,,,,,,,,,,,,,,,
2015013,2,Our lady of the Lake School,0,2000,2004,*,,none,,,,,,,,,,,,,,,,,
1984002,1,Silangan Elementary School,0,1967,1973,0,,none,,,,,,,,,,,,,,,,,
1984002,2,Cavinti Academy,0,1976,1980,0,,none,,,,,,,,,,,,,,,,,
1984002,4,Infotech Computer School,Computer Programming,1998,1999,0,,none,,,,,,,,,,,,,,,,,
1995003,3,Technological University of the Philippines,0,1990,1993,*,,none,,,,,,,,,,,,,,,,,
1995003,2,Holy Infort Jesus School,High School,1985,1989,0,,none,,,,,,,,,,,,,,,,,
1995003,1,Queens Row Elementary School,High School,1979,1985,0,,none,,,,,,,,,,,,,,,,,
2018004,1,DAPDAP ELEMENTARY SCHOOL,Elementary,1990,1994,*,,none,,,,,,,,,,,,,,,,,
2018004,2,DAPDAP NATIONAL HIGH SCHOOL,SECONDARY,1995,1997,*,,none,,,,,,,,,,,,,,,,,
2018004,3,ST. THERESE COLLEGE,Associate Marine Transportation,1997,2000,*,,none,,,,,,,,,,,,,,,,,
2011016,1,CABETICAN ELEM. SCHOOL,Elementary,1996,1997,-,,SALUTATORIAN,,,,,,,,,,,,,,,,,
2011016,2,DON HANORIO VENTURA COLLEGE OF ARTS,High School,1997,2003,-,,TOP+8,,,,,,,,,,,,,,,,,
2011016,4,DON HANORIO VENTURA COLLEGE OF ARTS,BS Mechanical Engineering,2003,2008,-,,NONE,,,,,,,,,,,,,,,,,
2011022,1,SAN PEDRO ELEMENTARY SCHOOL,Elementary,1991,1997,0,,SALUTATORIAN,,,,,,,,,,,,,,,,,
2011022,2,STO. TOMAS HIGH SCHOOL,High School,1997,2001,0,,SECOND+HONORABLE+MENTIONED,,,,,,,,,,,,,,,,,
2011022,4,DON HONORIO VENTURA COLLEGE OF ARTS,BS Mechanical Engineering,2003,2008,0,,0,,,,,,,,,,,,,,,,,
2011007,1,ST. PAUL SCHOOL MAKATI,Elementary,1981,1987,0,,none,,,,,,,,,,,,,,,,,
2011007,2,COLEGIO DELA IMMACULADA CONCEPCION DELA CONCORDIA,Secondary,1987,1991,0,,MERIT CARD AWARDEE FOR ACADEMIC EXCELLENCE,,,,,,,,,,,,,,,,,
2011007,4,UNIVERSITY OF THE PHILIPPINES-QUEZON CITY,AB Psychology,1991,1995,0,,none,,,,,,,,,,,,,,,,,
2011007,4,LYCEUM OF THE PHILIPPINES UNIVERSITY,Bachelor of Laws,2004,2009,0,,MERIT CARD AWARDEE FOR ACADEMIC EXCELLENCE,,,,,,,,,,,,,,,,,
2011007,5,INTERNATIONAL ACADEMY OF MANAGEMENT AND ECONOMICS,Master in  Business Administration,1997,1998,0,,none,,,,,,,,,,,,,,,,,
1989007,1,Parang Elementary School,Elementary,1975,1981,0,,none,,,,,,,,,,,,,,,,,
1989007,2,Roosevelt College Lamauan Marikina,High School,1981,1985,0,,none,,,,,,,,,,,,,,,,,
1989007,4,Polytechnic University of the Philippines,BS Computer Data Processing Management,1985,1989,0,,none,,,,,,,,,,,,,,,,,
1989007,5,UP Los Banos,Master of Information Technology,2010,0,36,,none,,,,,,,,,,,,,,,,,
2011004,1,CAMANCI NORTE ELEMENTARY SCHOOL,Elementary,1995,2001,0,,none,,,,,,,,,,,,,,,,,
2011004,2,AKLAN POLYTECHNIC COLLEGE,Secondary,2001,2005,0,,none,,,,,,,,,,,,,,,,,
2011004,4,GARCIA COLLEGE OF TECHNOLOGY,BS Accountancy,2006,2010,0,,none,,,,,,,,,,,,,,,,,
1987008,2,F. Balagtas Academy,High School,1967,1971,0,,none,,,,,,,,,,,,,,,,,
1987008,1,Bambang Elementary School,Elementary,1961,1967,0,,none,,,,,,,,,,,,,,,,,
1987008,4,G. Araneta University Foundation,AB Economics,1973,1977,0,,none,,,,,,,,,,,,,,,,,
1987008,5,G. Araneta University Foundation,0,1982,1983,*,,none,,,,,,,,,,,,,,,,,
2011005,1,BONE SOUTH ELEMENTARY SCHOOL,Elementary,1983,1989,0,,0,,,,,,,,,,,,,,,,,
2011005,2,SAINT TERESITAS ACADEMY ANNEX,High School,1989,1993,0,,ACADEMIC+SCHOLAR,,,,,,,,,,,,,,,,,
2011005,3,INTERNATIONAL ELECTRONICS AND TECHNICAL INSTITUTE,Consumer Electronics & Electro-Mechanical Tech.,2006,2008,0,,FIRST+HONOR,,,,,,,,,,,,,,,,,
9001,1,CORPUS CHRISTI SCHOOL,0,1998,2001,n/a,,none,,,,,,,,,,,,,,,,,
9001,2,CORPUS CHRISTI SCHOOL,0,2001,2005,n/a,,none,,,,,,,,,,,,,,,,,
9001,4,UNIVERSITY OF THE PHILIPPINES DILIMAN ,A.B. Political Science,2005,2007,70,,none,,,,,,,,,,,,,,,,,
9001,4,UNIVERSITY OF THE PHILIPPINES DILIMAN ,0,2007,2012,n/a,,none,,,,,,,,,,,,,,,,,
3253,1,Rizal Elementary School,Elementary,1964,1970,graduated,,none,,,,,,,,,,,,,,,,,
3253,2,Bacolod City Highschool,SECONDARY,1970,1974,graduated,,none,,,,,,,,,,,,,,,,,
3253,4,University of Negros Occ-Recoletos,mechanical engineering technology,1978,1983,graduated,,none,,,,,,,,,,,,,,,,,
9002,1,Tabaco South Central Elementary School,0,1994,2000,n/a,,none,,,,,,,,,,,,,,,,,
9002,2,Tabaco National High School,0,2000,2004,n/a,,none,,,,,,,,,,,,,,,,,
9002,4,University of the Philippines Diliman,BS Mechanical Engineering,2004,2010,n/a,,none,,,,,,,,,,,,,,,,,
3216,1,EMS SIGNAL VILL. ELEMETARY SCHOOL,0,1992,1998,n/a ,,none,,,,,,,,,,,,,,,,,
3216,2,PASAY CITY SOUTH HIGH SCHOOL,0,1998,2002,n/a,,none,,,,,,,,,,,,,,,,,
3216,3,TESDA,Welder,2008,2009,n/a,,none,,,,,,,,,,,,,,,,,
3099,4,Taguig City University,Bachelor of Science in Office Administration,2007,2011,n/a,,none,,,,,,,,,,,,,,,,,
3338,1,West Central elementary School,0,2001,2005,n/a,,none,,,,,,,,,,,,,,,,,
3338,2,San Fbian National High School ,0,2005,2009,n/a,,none,,,,,,,,,,,,,,,,,
3338,4,Don Mariano Marcos Memorial State University,0,2009,2015,n/a,,none,,,,,,,,,,,,,,,,,
3122,1,Dongon Elementary School,0,1986,1992,graduated,,none,,,,,,,,,,,,,,,,,
3122,2,Science Development National High School,0,1992,1996,graduated,,none,,,,,,,,,,,,,,,,,
3122,4,University of the Philippines in the Visayas,Bachelor of Science in Chemistry,1996,2002,graduated,,none,,,,,,,,,,,,,,,,,
3122,4,University of San Agustin,Bachelor of Science in Chemistry,2003,2005,graduated,,none,,,,,,,,,,,,,,,,,
9003,1,Blessed Christ Child Montessori,0,1994,2000,n/a,,2nd Honorable Mention,,,,,,,,,,,,,,,,,
9003,2,Blessed Christ Child Montessori,0,2000,2004,n/a,,Valedictorian,,,,,,,,,,,,,,,,,
9003,4,University of the Philippines Diliman,BS Mechanical Engineering,2004,2009,n/a,,none,,,,,,,,,,,,,,,,,
3064,,,,,,,,,,,,,,,,,,,,,,,,,
3405,,,,,,,,,,,,,,,,,,,,,,,,,
3376,1,Nuevo Campo Elementary School,0,2005,2009,graduated,,5th+Honorable,,,,,,,,,,,,,,,,,
3376,2,Signal Village National High School,0,2009,2013,graduated,,10th+Honorable,,,,,,,,,,,,,,,,,
3376,4,Taguig City University,BS Marketing Management,2013,2017,graduated,,none,,,,,,,,,,,,,,,,,
3401,,,,,,,,,,,,,,,,,,,,,,,,,
3383,,,,,,,,,,,,,,,,,,,,,,,,,
3368,,,,,,,,,,,,,,,,,,,,,,,,,
9004,1,Bulacao Elementary School,Elementary,1994,2004,graduated,,none,,,,,,,,,,,,,,,,,
9004,2,Gubat National High School,Secondary,2000,2004,graduated,,none,,,,,,,,,,,,,,,,,
9004,4,University of the Philippines Diliman,BS Mechanical Engineering,2004,2009,graduated,,none,,,,,,,,,,,,,,,,,
9004,4,University of the Philippines Diliman,BS Mechanical Engineering,2009,2014,graduated,,none,,,,,,,,,,,,,,,,,
3321,,,,,,,,,,,,,,,,,,,,,,,,,
3245,1,Sta Barbara Elem. School,0,1994,2000,n/a,,none,,,,,,,,,,,,,,,,,
3245,2,Mariano Porce High School,0,2000,2004,n/a,,none,,,,,,,,,,,,,,,,,
3245,3,Don Bosco Technical College,Fitter Machinist,2005,2007,n/a,,none,,,,,,,,,,,,,,,,,
3130,1,Saint  Francis,0,2003,2004,n/a,,none,,,,,,,,,,,,,,,,,
3130,2,Saint  Francis,0,2007,2008,n/a,,none,,,,,,,,,,,,,,,,,
3109,,,,,,,,,,,,,,,,,,,,,,,,,
3389,1,Casanayan Elementary School ,0,1983,1989,n/a,,none,,,,,,,,,,,,,,,,,
3389,1,Casanayan National High School,0,1989,1993,n/a,,none,,,,,,,,,,,,,,,,,
3389,3,Quezon Technical School,Technician,1993,1994,n/a,,none,,,,,,,,,,,,,,,,,
3288,1,Taguig Elementary School,0,2000,2006,n/a,,none,,,,,,,,,,,,,,,,,
3288,2,Gen. Recardo G. Papa Mem. High School,0,2006,2010,n/a,,none,,,,,,,,,,,,,,,,,
3288,4,Taguig City University ,Bachelor of Science in Computer Science,2010,2014,n/a,,none,,,,,,,,,,,,,,,,,
9009,1,BAYANAN ELEMENTARY SCHOOL ,0,1994,2000,graduated,,none,,,,,,,,,,,,,,,,,
9009,2,MUNTINLUPA SCIENCE HIGH SCHOOL,0,2000,2004,graduated,,none,,,,,,,,,,,,,,,,,
9009,4,COLEGIO DE SAN JUAN DE LETRAN,Bachelor of Science in Computer Engineering,2004,2005,graduated,,none,,,,,,,,,,,,,,,,,
9009,4,UNIVERSITY OF THE PHILIPPINES DILIMAN,BS Mechanical Engineering,2005,2010,graduated,,none,,,,,,,,,,,,,,,,,
9009,4,UNIVERSITY OF THE PHILIPPINES DILIMAN,BS Mechanical Engineering,2013,0,graduated,,none,,,,,,,,,,,,,,,,,
9010,1,Marcopper Elementary School,0,1933,1999,n/a,,none,,,,,,,,,,,,,,,,,
9010,2,Mapua Institute of Technology,0,1999,2003,n/a,,none,,,,,,,,,,,,,,,,,
9010,4,Technological University of the Philipines,0,2003,2004,n/a,,none,,,,,,,,,,,,,,,,,
9010,4,Technological University of the Philipines,0,2003,2004,n/a,,none,,,,,,,,,,,,,,,,,
9010,4,University of the Philippines ,BS Mechanical Engineering,2004,2010,n/a,,none,,,,,,,,,,,,,,,,,
3353,1,DOLORES ELEMENTARY  SCHOOL,0,1984,1989,graduated,,none,,,,,,,,,,,,,,,,,
3353,2,DOMINICIAN SCHOOL CAPAS TARLAC,0,1988,1989,graduated,,none,,,,,,,,,,,,,,,,,
3353,3,HOLY ANGEL UNIN,0,1990,1992,graduated,,none,,,,,,,,,,,,,,,,,
3353,3,Tesda- NC II,0,0,0,graduated,,none,,,,,,,,,,,,,,,,,
3180,1,Divine Word College,0,1985,1990,n/a,,none,,,,,,,,,,,,,,,,,
3180,2,Divine Word College,0,1990,1994,n/a,,none,,,,,,,,,,,,,,,,,
3180,4,Divine Word College,BS ACCOUNTANCY,1994,1998,graduated,,none,,,,,,,,,,,,,,,,,
3135,,,,,,,,,,,,,,,,,,,,,,,,,
3392,1,Bansud Central School,0,1985,1991,n/a,,none,,,,,,,,,,,,,,,,,
3392,2,Simeon Suan National Memorial High School,0,1991,1995,n/a,,none,,,,,,,,,,,,,,,,,
3392,3,Cavite State University,Associate In Hotel and Restaurant Management,1998,2000,23,,none,,,,,,,,,,,,,,,,,
3392,4,Philippines Christian University,Bachelor of Secondary Education,2008,2011,n/a,,none,,,,,,,,,,,,,,,,,
3359,1,LAZAAN - MALINAO ELEMENTARY SCHOOL,0,2001,2007,graduated,,none,,,,,,,,,,,,,,,,,
3359,2,UPLAND NATIONAL HIGH SCHOOL,0,2007,2011,graduated,,none,,,,,,,,,,,,,,,,,
3359,4,UNIVERSITY OF THE PHILIPPINES LOS BANOS,0,2011,2016,graduated,,none,,,,,,,,,,,,,,,,,
3375,1,Tabaco South Central Elementary School,0,2000,2006,n/a,,none,,,,,,,,,,,,,,,,,
3375,2,Tabaco National High School,0,2006,2010,n/a,,none,,,,,,,,,,,,,,,,,
3375,4,Bicol University,BS Mechanical Engineering,2010,2015,n/a,,DOST-SEI,,,,,,,,,,,,,,,,,
3255,1,Pedro Guevarra,0,0,0,*,,none,,,,,,,,,,,,,,,,,
3255,2,Rajah Soliman,0,0,0,*,,none,,,,,,,,,,,,,,,,,
3255,4,University of the East,Bachelor of Engineering,0,0,*,,none,,,,,,,,,,,,,,,,,
3229,1,St. Marys Academy ,0,1990,1984,n/a,,none,,,,,,,,,,,,,,,,,
3229,1,St. Marys Academy ,0,1990,1994,n/a,,none,,,,,,,,,,,,,,,,,
3229,4,Philippines Womens University,AB Communication Arts Major in Advertising & PR,1994,1998,n/a,,none,,,,,,,,,,,,,,,,,
3203,1,Regis GradeMentessori,0,1997,2003,n/a,,none,,,,,,,,,,,,,,,,,
3203,2,Regis GradeMentessori,0,2003,2007,n/a,,none,,,,,,,,,,,,,,,,,
3203,4,Technological University of the Philippines Taguig,B.S E.C.E,2007,2011,n/a,,none,,,,,,,,,,,,,,,,,
3382,1,Ricardo P. Cruz SR. Elem. School,0,1998,2004,n/a,,none,,,,,,,,,,,,,,,,,
3382,2,Bagumbayan National School,0,2004,2008,n/a,,none,,,,,,,,,,,,,,,,,
3382,4,National College of Science and Technology,BS ACCOUNTANCY,2008,2013,n/a,,none,,,,,,,,,,,,,,,,,
3396,1,UNGKA II ELEMENTARY SCHOOL,Elementary,2001,2007,graduated,,none,,,,,,,,,,,,,,,,,
3396,2,ILOILO NATIONAL HIGH SCHOOL,SECONDARY,2007,2011,graduated,,none,,,,,,,,,,,,,,,,,
3396,4,CENTRAL PHILIPPINE UNIVERSITY,Bachelor of Science in Chemistry,2011,2015,graduated,,none,,,,,,,,,,,,,,,,,
3364,1,Manila Central University,0,1999,2005,n/a,,none,,,,,,,,,,,,,,,,,
3364,2,St. Paul University Philippines,0,2004,2008,n/a,,none,,,,,,,,,,,,,,,,,
3364,4,St. Paul University Philippines,0,2008,2013,n/a,,none,,,,,,,,,,,,,,,,,
3386,1,CATLOLING ELEMENTARY SCHOOL,0,2005,2009,graduated,,none,,,,,,,,,,,,,,,,,
3386,2,SAN NICOLAS NATIONAL HIGH SCHOOL,0,2009,2013,graduated,,none,,,,,,,,,,,,,,,,,
3386,3,ST. GABRIEL INTERNATIONAL CENTRE FOR QUALITY LEARNING,0,2013,2013,graduated,,none,,,,,,,,,,,,,,,,,
3386,4,MAPIANO MARCOS STATE UNIVERSITY,0,2013,2017,graduated,,none,,,,,,,,,,,,,,,,,
3365,4,UNIVERSITY OF THE PHILIPPINES LOS BANOS LAGUNA,BS AGRICULTURAL ENGINEERING,2001,2005,graduated,,none,,,,,,,,,,,,,,,,,
3394,,,,,,,,,,,,,,,,,,,,,,,,,
,,,,,,,,,,,,,,,,,,,,,,,,,
,,,,,,,,,,,,,,,,,,,,,,,,,
,,,,,,,,,,,,,,,,,,,,,,,,,
,,,,,,,,,,,,,,,,,,,,,,,,,
,,,,,,,,,,,,,,,,,,,,,,,,,
,,,,,,,,,,,,,,,,,,,,,,,,,
,,,,,,,,,,,,,,,,,,,,,,,,,
,,,,,,,,,,,,,,,,,,,,,,,,,
,,,,,,,,,,,,,,,,,,,,,,,,,
,,,,,,,,,,,,,,,,,,,,,,,,,
,,,,,,,,,,,,,,,,,,,,,,,,,
,,,,,,,,,,,,,,,,,,,,,,,,,
,,,,,,,,,,,,,,,,,,,,,,,,,
,,,,,,,,,,,,,,,,,,,,,,,,,
,,,,,,,,,,,,,,,,,,,,,,,,,
,,,,,,,,,,,,,,,,,,,,,,,,,
,,,,,,,,,,,,,,,,,,,,,,,,,
,,,,,,,,,,,,,,,,,,,,,,,,,
,,,,,,,,,,,,,,,,,,,,,,,,,
,,,,,,,,,,,,,,,,,,,,,,,,,
,,,,,,,,,,,,,,,,,,,,,,,,,
,,,,,,,,,,,,,,,,,,,,,,,,,
,,,,,,,,,,,,,,,,,,,,,,,,,
,,,,,,,,,,,,,,,,,,,,,,,,,
,,,,,,,,,,,,,,,,,,,,,,,,,
,,,,,,,,,,,,,,,,,,,,,,,,,
,,,,,,,,,,,,,,,,,,,,,,,,,
,,,,,,,,,,,,,,,,,,,,,,,,,
,,,,,,,,,,,,,,,,,,,,,,,,,
,,,,,,,,,,,,,,,,,,,,,,,,,
,,,,,,,,,,,,,,,,,,,,,,,,,
,,,,,,,,,,,,,,,,,,,,,,,,,
,,,,,,,,,,,,,,,,,,,,,,,,,
,,,,,,,,,,,,,,,,,,,,,,,,,
,,,,,,,,,,,,,,,,,,,,,,,,,
,,,,,,,,,,,,,,,,,,,,,,,,,
,,,,,,,,,,,,,,,,,,,,,,,,,
,,,,,,,,,,,,,,,,,,,,,,,,,
,,,,,,,,,,,,,,,,,,,,,,,,,
,,,,,,,,,,,,,,,,,,,,,,,,,
,,,,,,,,,,,,,,,,,,,,,,,,,
,,,,,,,,,,,,,,,,,,,,,,,,,
,,,,,,,,,,,,,,,,,,,,,,,,,
,,,,,,,,,,,,,,,,,,,,,,,,,
,,,,,,,,,,,,,,,,,,,,,,,,,
,,,,,,,,,,,,,,,,,,,,,,,,,
,,,,,,,,,,,,,,,,,,,,,,,,,
,,,,,,,,,,,,,,,,,,,,,,,,,
,,,,,,,,,,,,,,,,,,,,,,,,,
,,,,,,,,,,,,,,,,,,,,,,,,,
,,,,,,,,,,,,,,,,,,,,,,,,,
,,,,,,,,,,,,,,,,,,,,,,,,,
,,,,,,,,,,,,,,,,,,,,,,,,,
,,,,,,,,,,,,,,,,,,,,,,,,,
,,,,,,,,,,,,,,,,,,,,,,,,,
,,,,,,,,,,,,,,,,,,,,,,,,,
,,,,,,,,,,,,,,,,,,,,,,,,,
,,,,,,,,,,,,,,,,,,,,,,,,,
,,,,,,,,,,,,,,,,,,,,,,,,,
,,,,,,,,,,,,,,,,,,,,,,,,,
,,,,,,,,,,,,,,,,,,,,,,,,,
,,,,,,,,,,,,,,,,,,,,,,,,,
,,,,,,,,,,,,,,,,,,,,,,,,,
,,,,,,,,,,,,,,,,,,,,,,,,,
,,,,,,,,,,,,,,,,,,,,,,,,,
,,,,,,,,,,,,,,,,,,,,,,,,,
,,,,,,,,,,,,,,,,,,,,,,,,,
,,,,,,,,,,,,,,,,,,,,,,,,,
,,,,,,,,,,,,,,,,,,,,,,,,,
,,,,,,,,,,,,,,,,,,,,,,,,,
,,,,,,,,,,,,,,,,,,,,,,,,,
,,,,,,,,,,,,,,,,,,,,,,,,,
,,,,,,,,,,,,,,,,,,,,,,,,,
,,,,,,,,,,,,,,,,,,,,,,,,,
,,,,,,,,,,,,,,,,,,,,,,,,,
,,,,,,,,,,,,,,,,,,,,,,,,,
,,,,,,,,,,,,,,,,,,,,,,,,,
,,,,,,,,,,,,,,,,,,,,,,,,,
,,,,,,,,,,,,,,,,,,,,,,,,,
,,,,,,,,,,,,,,,,,,,,,,,,,
,,,,,,,,,,,,,,,,,,,,,,,,,
,,,,,,,,,,,,,,,,,,,,,,,,,
,,,,,,,,,,,,,,,,,,,,,,,,,
,,,,,,,,,,,,,,,,,,,,,,,,,
,,,,,,,,,,,,,,,,,,,,,,,,,
,,,,,,,,,,,,,,,,,,,,,,,,,
,,,,,,,,,,,,,,,,,,,,,,,,,
,,,,,,,,,,,,,,,,,,,,,,,,,
,,,,,,,,,,,,,,,,,,,,,,,,,
,,,,,,,,,,,,,,,,,,,,,,,,,
,,,,,,,,,,,,,,,,,,,,,,,,,
,,,,,,,,,,,,,,,,,,,,,,,,,
,,,,,,,,,,,,,,,,,,,,,,,,,
,,,,,,,,,,,,,,,,,,,,,,,,,
,,,,,,,,,,,,,,,,,,,,,,,,,
,,,,,,,,,,,,,,,,,,,,,,,,,
,,,,,,,,,,,,,,,,,,,,,,,,,
,,,,,,,,,,,,,,,,,,,,,,,,,
,,,,,,,,,,,,,,,,,,,,,,,,,
,,,,,,,,,,,,,,,,,,,,,,,,,
,,,,,,,,,,,,,,,,,,,,,,,,,
,,,,,,,,,,,,,,,,,,,,,,,,,
,,,,,,,,,,,,,,,,,,,,,,,,,
,,,,,,,,,,,,,,,,,,,,,,,,,
,,,,,,,,,,,,,,,,,,,,,,,,,
,,,,,,,,,,,,,,,,,,,,,,,,,
,,,,,,,,,,,,,,,,,,,,,,,,,
,,,,,,,,,,,,,,,,,,,,,,,,,
,,,,,,,,,,,,,,,,,,,,,,,,,
,,,,,,,,,,,,,,,,,,,,,,,,,
,,,,,,,,,,,,,,,,,,,,,,,,,
,,,,,,,,,,,,,,,,,,,,,,,,,
,,,,,,,,,,,,,,,,,,,,,,,,,
,,,,,,,,,,,,,,,,,,,,,,,,,
,,,,,,,,,,,,,,,,,,,,,,,,,
,,,,,,,,,,,,,,,,,,,,,,,,,
,,,,,,,,,,,,,,,,,,,,,,,,,
,,,,,,,,,,,,,,,,,,,,,,,,,
,,,,,,,,,,,,,,,,,,,,,,,,,
,,,,,,,,,,,,,,,,,,,,,,,,,
,,,,,,,,,,,,,,,,,,,,,,,,,
,,,,,,,,,,,,,,,,,,,,,,,,,
,,,,,,,,,,,,,,,,,,,,,,,,,
,,,,,,,,,,,,,,,,,,,,,,,,,
,,,,,,,,,,,,,,,,,,,,,,,,,
,,,,,,,,,,,,,,,,,,,,,,,,,
,,,,,,,,,,,,,,,,,,,,,,,,,
,,,,,,,,,,,,,,,,,,,,,,,,,
,,,,,,,,,,,,,,,,,,,,,,,,,
,,,,,,,,,,,,,,,,,,,,,,,,,
,,,,,,,,,,,,,,,,,,,,,,,,,
,,,,,,,,,,,,,,,,,,,,,,,,,
,,,,,,,,,,,,,,,,,,,,,,,,,
,,,,,,,,,,,,,,,,,,,,,,,,,
,,,,,,,,,,,,,,,,,,,,,,,,,
,,,,,,,,,,,,,,,,,,,,,,,,,
,,,,,,,,,,,,,,,,,,,,,,,,,
,,,,,,,,,,,,,,,,,,,,,,,,,
,,,,,,,,,,,,,,,,,,,,,,,,,
,,,,,,,,,,,,,,,,,,,,,,,,,
,,,,,,,,,,,,,,,,,,,,,,,,,
,,,,,,,,,,,,,,,,,,,,,,,,,
,,,,,,,,,,,,,,,,,,,,,,,,,
,,,,,,,,,,,,,,,,,,,,,,,,,
,,,,,,,,,,,,,,,,,,,,,,,,,
,,,,,,,,,,,,,,,,,,,,,,,,,
,,,,,,,,,,,,,,,,,,,,,,,,,
,,,,,,,,,,,,,,,,,,,,,,,,,
,,,,,,,,,,,,,,,,,,,,,,,,,
,,,,,,,,,,,,,,,,,,,,,,,,,
,,,,,,,,,,,,,,,,,,,,,,,,,
,,,,,,,,,,,,,,,,,,,,,,,,,
,,,,,,,,,,,,,,,,,,,,,,,,,
,,,,,,,,,,,,,,,,,,,,,,,,,
,,,,,,,,,,,,,,,,,,,,,,,,,
,,,,,,,,,,,,,,,,,,,,,,,,,
,,,,,,,,,,,,,,,,,,,,,,,,,
,,,,,,,,,,,,,,,,,,,,,,,,,
,,,,,,,,,,,,,,,,,,,,,,,,,
,,,,,,,,,,,,,,,,,,,,,,,,,
,,,,,,,,,,,,,,,,,,,,,,,,,
,,,,,,,,,,,,,,,,,,,,,,,,,
,,,,,,,,,,,,,,,,,,,,,,,,,
,,,,,,,,,,,,,,,,,,,,,,,,,
,,,,,,,,,,,,,,,,,,,,,,,,,
,,,,,,,,,,,,,,,,,,,,,,,,,
,,,,,,,,,,,,,,,,,,,,,,,,,
,,,,,,,,,,,,,,,,,,,,,,,,,
,,,,,,,,,,,,,,,,,,,,,,,,,
,,,,,,,,,,,,,,,,,,,,,,,,,
,,,,,,,,,,,,,,,,,,,,,,,,,
,,,,,,,,,,,,,,,,,,,,,,,,,
,,,,,,,,,,,,,,,,,,,,,,,,,
,,,,,,,,,,,,,,,,,,,,,,,,,
,,,,,,,,,,,,,,,,,,,,,,,,,
,,,,,,,,,,,,,,,,,,,,,,,,,
,,,,,,,,,,,,,,,,,,,,,,,,,
,,,,,,,,,,,,,,,,,,,,,,,,,
,,,,,,,,,,,,,,,,,,,,,,,,,
,,,,,,,,,,,,,,,,,,,,,,,,,
,,,,,,,,,,,,,,,,,,,,,,,,,
,,,,,,,,,,,,,,,,,,,,,,,,,
,,,,,,,,,,,,,,,,,,,,,,,,,
,,,,,,,,,,,,,,,,,,,,,,,,,
,,,,,,,,,,,,,,,,,,,,,,,,,
,,,,,,,,,,,,,,,,,,,,,,,,,
,,,,,,,,,,,,,,,,,,,,,,,,,
,,,,,,,,,,,,,,,,,,,,,,,,,
,,,,,,,,,,,,,,,,,,,,,,,,,
,,,,,,,,,,,,,,,,,,,,,,,,,
,,,,,,,,,,,,,,,,,,,,,,,,,
,,,,,,,,,,,,,,,,,,,,,,,,,
,,,,,,,,,,,,,,,,,,,,,,,,,
,,,,,,,,,,,,,,,,,,,,,,,,,
,,,,,,,,,,,,,,,,,,,,,,,,,
,,,,,,,,,,,,,,,,,,,,,,,,,
,,,,,,,,,,,,,,,,,,,,,,,,,
,,,,,,,,,,,,,,,,,,,,,,,,,
,,,,,,,,,,,,,,,,,,,,,,,,,
,,,,,,,,,,,,,,,,,,,,,,,,,
,,,,,,,,,,,,,,,,,,,,,,,,,
,,,,,,,,,,,,,,,,,,,,,,,,,
,,,,,,,,,,,,,,,,,,,,,,,,,
,,,,,,,,,,,,,,,,,,,,,,,,,
,,,,,,,,,,,,,,,,,,,,,,,,,
,,,,,,,,,,,,,,,,,,,,,,,,,
,,,,,,,,,,,,,,,,,,,,,,,,,
,,,,,,,,,,,,,,,,,,,,,,,,,
,,,,,,,,,,,,,,,,,,,,,,,,,
,,,,,,,,,,,,,,,,,,,,,,,,,
,,,,,,,,,,,,,,,,,,,,,,,,,
,,,,,,,,,,,,,,,,,,,,,,,,,
,,,,,,,,,,,,,,,,,,,,,,,,,
,,,,,,,,,,,,,,,,,,,,,,,,,
,,,,,,,,,,,,,,,,,,,,,,,,,
,,,,,,,,,,,,,,,,,,,,,,,,,
,,,,,,,,,,,,,,,,,,,,,,,,,
,,,,,,,,,,,,,,,,,,,,,,,,,
,,,,,,,,,,,,,,,,,,,,,,,,,
,,,,,,,,,,,,,,,,,,,,,,,,,
,,,,,,,,,,,,,,,,,,,,,,,,,
,,,,,,,,,,,,,,,,,,,,,,,,,
,,,,,,,,,,,,,,,,,,,,,,,,,
,,,,,,,,,,,,,,,,,,,,,,,,,
,,,,,,,,,,,,,,,,,,,,,,,,,
,,,,,,,,,,,,,,,,,,,,,,,,,
,,,,,,,,,,,,,,,,,,,,,,,,,
,,,,,,,,,,,,,,,,,,,,,,,,,
,,,,,,,,,,,,,,,,,,,,,,,,,
,,,,,,,,,,,,,,,,,,,,,,,,,
,,,,,,,,,,,,,,,,,,,,,,,,,
,,,,,,,,,,,,,,,,,,,,,,,,,
,,,,,,,,,,,,,,,,,,,,,,,,,
,,,,,,,,,,,,,,,,,,,,,,,,,
,,,,,,,,,,,,,,,,,,,,,,,,,
,,,,,,,,,,,,,,,,,,,,,,,,,
,,,,,,,,,,,,,,,,,,,,,,,,,
,,,,,,,,,,,,,,,,,,,,,,,,,
,,,,,,,,,,,,,,,,,,,,,,,,,
,,,,,,,,,,,,,,,,,,,,,,,,,
,,,,,,,,,,,,,,,,,,,,,,,,,
,,,,,,,,,,,,,,,,,,,,,,,,,
,,,,,,,,,,,,,,,,,,,,,,,,,
,,,,,,,,,,,,,,,,,,,,,,,,,
,,,,,,,,,,,,,,,,,,,,,,,,,
,,,,,,,,,,,,,,,,,,,,,,,,,
,,,,,,,,,,,,,,,,,,,,,,,,,
,,,,,,,,,,,,,,,,,,,,,,,,,
,,,,,,,,,,,,,,,,,,,,,,,,,
,,,,,,,,,,,,,,,,,,,,,,,,,
,,,,,,,,,,,,,,,,,,,,,,,,,
,,,,,,,,,,,,,,,,,,,,,,,,,
,,,,,,,,,,,,,,,,,,,,,,,,,
,,,,,,,,,,,,,,,,,,,,,,,,,
,,,,,,,,,,,,,,,,,,,,,,,,,
,,,,,,,,,,,,,,,,,,,,,,,,,
,,,,,,,,,,,,,,,,,,,,,,,,,
,,,,,,,,,,,,,,,,,,,,,,,,,
,,,,,,,,,,,,,,,,,,,,,,,,,
,,,,,,,,,,,,,,,,,,,,,,,,,
,,,,,,,,,,,,,,,,,,,,,,,,,
,,,,,,,,,,,,,,,,,,,,,,,,,
,,,,,,,,,,,,,,,,,,,,,,,,,
,,,,,,,,,,,,,,,,,,,,,,,,,
,,,,,,,,,,,,,,,,,,,,,,,,,
,,,,,,,,,,,,,,,,,,,,,,,,,
,,,,,,,,,,,,,,,,,,,,,,,,,
,,,,,,,,,,,,,,,,,,,,,,,,,
,,,,,,,,,,,,,,,,,,,,,,,,,
,,,,,,,,,,,,,,,,,,,,,,,,,
,,,,,,,,,,,,,,,,,,,,,,,,,
,,,,,,,,,,,,,,,,,,,,,,,,,
,,,,,,,,,,,,,,,,,,,,,,,,,
,,,,,,,,,,,,,,,,,,,,,,,,,
,,,,,,,,,,,,,,,,,,,,,,,,,
,,,,,,,,,,,,,,,,,,,,,,,,,
,,,,,,,,,,,,,,,,,,,,,,,,,
,,,,,,,,,,,,,,,,,,,,,,,,,
,,,,,,,,,,,,,,,,,,,,,,,,,
,,,,,,,,,,,,,,,,,,,,,,,,,
,,,,,,,,,,,,,,,,,,,,,,,,,
,,,,,,,,,,,,,,,,,,,,,,,,,
,,,,,,,,,,,,,,,,,,,,,,,,,
,,,,,,,,,,,,,,,,,,,,,,,,,
,,,,,,,,,,,,,,,,,,,,,,,,,
,,,,,,,,,,,,,,,,,,,,,,,,,
,,,,,,,,,,,,,,,,,,,,,,,,,
,,,,,,,,,,,,,,,,,,,,,,,,,
,,,,,,,,,,,,,,,,,,,,,,,,,
,,,,,,,,,,,,,,,,,,,,,,,,,
,,,,,,,,,,,,,,,,,,,,,,,,,
,,,,,,,,,,,,,,,,,,,,,,,,,
,,,,,,,,,,,,,,,,,,,,,,,,,
,,,,,,,,,,,,,,,,,,,,,,,,,
,,,,,,,,,,,,,,,,,,,,,,,,,
,,,,,,,,,,,,,,,,,,,,,,,,,
,,,,,,,,,,,,,,,,,,,,,,,,,
,,,,,,,,,,,,,,,,,,,,,,,,,
,,,,,,,,,,,,,,,,,,,,,,,,,
,,,,,,,,,,,,,,,,,,,,,,,,,
,,,,,,,,,,,,,,,,,,,,,,,,,
,,,,,,,,,,,,,,,,,,,,,,,,,
,,,,,,,,,,,,,,,,,,,,,,,,,
,,,,,,,,,,,,,,,,,,,,,,,,,
,,,,,,,,,,,,,,,,,,,,,,,,,
,,,,,,,,,,,,,,,,,,,,,,,,,
,,,,,,,,,,,,,,,,,,,,,,,,,
,,,,,,,,,,,,,,,,,,,,,,,,,
,,,,,,,,,,,,,,,,,,,,,,,,,
,,,,,,,,,,,,,,,,,,,,,,,,,
,,,,,,,,,,,,,,,,,,,,,,,,,
,,,,,,,,,,,,,,,,,,,,,,,,,
,,,,,,,,,,,,,,,,,,,,,,,,,
,,,,,,,,,,,,,,,,,,,,,,,,,
,,,,,,,,,,,,,,,,,,,,,,,,,
,,,,,,,,,,,,,,,,,,,,,,,,,
,,,,,,,,,,,,,,,,,,,,,,,,,
,,,,,,,,,,,,,,,,,,,,,,,,,
,,,,,,,,,,,,,,,,,,,,,,,,,
,,,,,,,,,,,,,,,,,,,,,,,,,
,,,,,,,,,,,,,,,,,,,,,,,,,
,,,,,,,,,,,,,,,,,,,,,,,,,
,,,,,,,,,,,,,,,,,,,,,,,,,
,,,,,,,,,,,,,,,,,,,,,,,,,
,,,,,,,,,,,,,,,,,,,,,,,,,
,,,,,,,,,,,,,,,,,,,,,,,,,
,,,,,,,,,,,,,,,,,,,,,,,,,
,,,,,,,,,,,,,,,,,,,,,,,,,
,,,,,,,,,,,,,,,,,,,,,,,,,
,,,,,,,,,,,,,,,,,,,,,,,,,
,,,,,,,,,,,,,,,,,,,,,,,,,
,,,,,,,,,,,,,,,,,,,,,,,,,
,,,,,,,,,,,,,,,,,,,,,,,,,
,,,,,,,,,,,,,,,,,,,,,,,,,
,,,,,,,,,,,,,,,,,,,,,,,,,
,,,,,,,,,,,,,,,,,,,,,,,,,
,,,,,,,,,,,,,,,,,,,,,,,,,
,,,,,,,,,,,,,,,,,,,,,,,,,
,,,,,,,,,,,,,,,,,,,,,,,,,
,,,,,,,,,,,,,,,,,,,,,,,,,
,,,,,,,,,,,,,,,,,,,,,,,,,
,,,,,,,,,,,,,,,,,,,,,,,,,
,,,,,,,,,,,,,,,,,,,,,,,,,
,,,,,,,,,,,,,,,,,,,,,,,,,
,,,,,,,,,,,,,,,,,,,,,,,,,
,,,,,,,,,,,,,,,,,,,,,,,,,
,,,,,,,,,,,,,,,,,,,,,,,,,
,,,,,,,,,,,,,,,,,,,,,,,,,
,,,,,,,,,,,,,,,,,,,,,,,,,
,,,,,,,,,,,,,,,,,,,,,,,,,
,,,,,,,,,,,,,,,,,,,,,,,,,
,,,,,,,,,,,,,,,,,,,,,,,,,
,,,,,,,,,,,,,,,,,,,,,,,,,
,,,,,,,,,,,,,,,,,,,,,,,,,
,,,,,,,,,,,,,,,,,,,,,,,,,
,,,,,,,,,,,,,,,,,,,,,,,,,
,,,,,,,,,,,,,,,,,,,,,,,,,
,,,,,,,,,,,,,,,,,,,,,,,,,
,,,,,,,,,,,,,,,,,,,,,,,,,
,,,,,,,,,,,,,,,,,,,,,,,,,
,,,,,,,,,,,,,,,,,,,,,,,,,
,,,,,,,,,,,,,,,,,,,,,,,,,
,,,,,,,,,,,,,,,,,,,,,,,,,
,,,,,,,,,,,,,,,,,,,,,,,,,
,,,,,,,,,,,,,,,,,,,,,,,,,
,,,,,,,,,,,,,,,,,,,,,,,,,
,,,,,,,,,,,,,,,,,,,,,,,,,
,,,,,,,,,,,,,,,,,,,,,,,,,
,,,,,,,,,,,,,,,,,,,,,,,,,
,,,,,,,,,,,,,,,,,,,,,,,,,
,,,,,,,,,,,,,,,,,,,,,,,,,
,,,,,,,,,,,,,,,,,,,,,,,,,
,,,,,,,,,,,,,,,,,,,,,,,,,
,,,,,,,,,,,,,,,,,,,,,,,,,
,,,,,,,,,,,,,,,,,,,,,,,,,
,,,,,,,,,,,,,,,,,,,,,,,,,
,,,,,,,,,,,,,,,,,,,,,,,,,
,,,,,,,,,,,,,,,,,,,,,,,,,
,,,,,,,,,,,,,,,,,,,,,,,,,
,,,,,,,,,,,,,,,,,,,,,,,,,
,,,,,,,,,,,,,,,,,,,,,,,,,
,,,,,,,,,,,,,,,,,,,,,,,,,
,,,,,,,,,,,,,,,,,,,,,,,,,
,,,,,,,,,,,,,,,,,,,,,,,,,
,,,,,,,,,,,,,,,,,,,,,,,,,
,,,,,,,,,,,,,,,,,,,,,,,,,
,,,,,,,,,,,,,,,,,,,,,,,,,
,,,,,,,,,,,,,,,,,,,,,,,,,
,,,,,,,,,,,,,,,,,,,,,,,,,
,,,,,,,,,,,,,,,,,,,,,,,,,
,,,,,,,,,,,,,,,,,,,,,,,,,
,,,,,,,,,,,,,,,,,,,,,,,,,
,,,,,,,,,,,,,,,,,,,,,,,,,
,,,,,,,,,,,,,,,,,,,,,,,,,
,,,,,,,,,,,,,,,,,,,,,,,,,
,,,,,,,,,,,,,,,,,,,,,,,,,
,,,,,,,,,,,,,,,,,,,,,,,,,
,,,,,,,,,,,,,,,,,,,,,,,,,
,,,,,,,,,,,,,,,,,,,,,,,,,
,,,,,,,,,,,,,,,,,,,,,,,,,
,,,,,,,,,,,,,,,,,,,,,,,,,
,,,,,,,,,,,,,,,,,,,,,,,,,
,,,,,,,,,,,,,,,,,,,,,,,,,
,,,,,,,,,,,,,,,,,,,,,,,,,
,,,,,,,,,,,,,,,,,,,,,,,,,
,,,,,,,,,,,,,,,,,,,,,,,,,
,,,,,,,,,,,,,,,,,,,,,,,,,
,,,,,,,,,,,,,,,,,,,,,,,,,
,,,,,,,,,,,,,,,,,,,,,,,,,
,,,,,,,,,,,,,,,,,,,,,,,,,
,,,,,,,,,,,,,,,,,,,,,,,,,
,,,,,,,,,,,,,,,,,,,,,,,,,
,,,,,,,,,,,,,,,,,,,,,,,,,
,,,,,,,,,,,,,,,,,,,,,,,,,
,,,,,,,,,,,,,,,,,,,,,,,,,
,,,,,,,,,,,,,,,,,,,,,,,,,
,,,,,,,,,,,,,,,,,,,,,,,,,
,,,,,,,,,,,,,,,,,,,,,,,,,
,,,,,,,,,,,,,,,,,,,,,,,,,
,,,,,,,,,,,,,,,,,,,,,,,,,
,,,,,,,,,,,,,,,,,,,,,,,,,
,,,,,,,,,,,,,,,,,,,,,,,,,
,,,,,,,,,,,,,,,,,,,,,,,,,
,,,,,,,,,,,,,,,,,,,,,,,,,
,,,,,,,,,,,,,,,,,,,,,,,,,
,,,,,,,,,,,,,,,,,,,,,,,,,
,,,,,,,,,,,,,,,,,,,,,,,,,
,,,,,,,,,,,,,,,,,,,,,,,,,
,,,,,,,,,,,,,,,,,,,,,,,,,
,,,,,,,,,,,,,,,,,,,,,,,,,
,,,,,,,,,,,,,,,,,,,,,,,,,
,,,,,,,,,,,,,,,,,,,,,,,,,
,,,,,,,,,,,,,,,,,,,,,,,,,
,,,,,,,,,,,,,,,,,,,,,,,,,
,,,,,,,,,,,,,,,,,,,,,,,,,
,,,,,,,,,,,,,,,,,,,,,,,,,
,,,,,,,,,,,,,,,,,,,,,,,,,
,,,,,,,,,,,,,,,,,,,,,,,,,
,,,,,,,,,,,,,,,,,,,,,,,,,
,,,,,,,,,,,,,,,,,,,,,,,,,
,,,,,,,,,,,,,,,,,,,,,,,,,
,,,,,,,,,,,,,,,,,,,,,,,,,
,,,,,,,,,,,,,,,,,,,,,,,,,
,,,,,,,,,,,,,,,,,,,,,,,,,
,,,,,,,,,,,,,,,,,,,,,,,,,
,,,,,,,,,,,,,,,,,,,,,,,,,
,,,,,,,,,,,,,,,,,,,,,,,,,
,,,,,,,,,,,,,,,,,,,,,,,,,
,,,,,,,,,,,,,,,,,,,,,,,,,
,,,,,,,,,,,,,,,,,,,,,,,,,
,,,,,,,,,,,,,,,,,,,,,,,,,
,,,,,,,,,,,,,,,,,,,,,,,,,
,,,,,,,,,,,,,,,,,,,,,,,,,
,,,,,,,,,,,,,,,,,,,,,,,,,
,,,,,,,,,,,,,,,,,,,,,,,,,
,,,,,,,,,,,,,,,,,,,,,,,,,
,,,,,,,,,,,,,,,,,,,,,,,,,
,,,,,,,,,,,,,,,,,,,,,,,,,
,,,,,,,,,,,,,,,,,,,,,,,,,
,,,,,,,,,,,,,,,,,,,,,,,,,
,,,,,,,,,,,,,,,,,,,,,,,,,
,,,,,,,,,,,,,,,,,,,,,,,,,
,,,,,,,,,,,,,,,,,,,,,,,,,
,,,,,,,,,,,,,,,,,,,,,,,,,
,,,,,,,,,,,,,,,,,,,,,,,,,
,,,,,,,,,,,,,,,,,,,,,,,,,
,,,,,,,,,,,,,,,,,,,,,,,,,
,,,,,,,,,,,,,,,,,,,,,,,,,
,,,,,,,,,,,,,,,,,,,,,,,,,
,,,,,,,,,,,,,,,,,,,,,,,,,
,,,,,,,,,,,,,,,,,,,,,,,,,
,,,,,,,,,,,,,,,,,,,,,,,,,
,,,,,,,,,,,,,,,,,,,,,,,,,
,,,,,,,,,,,,,,,,,,,,,,,,,
,,,,,,,,,,,,,,,,,,,,,,,,,
,,,,,,,,,,,,,,,,,,,,,,,,,
,,,,,,,,,,,,,,,,,,,,,,,,,
,,,,,,,,,,,,,,,,,,,,,,,,,
,,,,,,,,,,,,,,,,,,,,,,,,,
,,,,,,,,,,,,,,,,,,,,,,,,,
,,,,,,,,,,,,,,,,,,,,,,,,,
,,,,,,,,,,,,,,,,,,,,,,,,,
,,,,,,,,,,,,,,,,,,,,,,,,,
,,,,,,,,,,,,,,,,,,,,,,,,,
,,,,,,,,,,,,,,,,,,,,,,,,,
,,,,,,,,,,,,,,,,,,,,,,,,,
,,,,,,,,,,,,,,,,,,,,,,,,,
,,,,,,,,,,,,,,,,,,,,,,,,,
,,,,,,,,,,,,,,,,,,,,,,,,,
,,,,,,,,,,,,,,,,,,,,,,,,,
,,,,,,,,,,,,,,,,,,,,,,,,,
,,,,,,,,,,,,,,,,,,,,,,,,,
,,,,,,,,,,,,,,,,,,,,,,,,,
,,,,,,,,,,,,,,,,,,,,,,,,,
,,,,,,,,,,,,,,,,,,,,,,,,,
,,,,,,,,,,,,,,,,,,,,,,,,,
,,,,,,,,,,,,,,,,,,,,,,,,,
,,,,,,,,,,,,,,,,,,,,,,,,,
,,,,,,,,,,,,,,,,,,,,,,,,,
,,,,,,,,,,,,,,,,,,,,,,,,,
,,,,,,,,,,,,,,,,,,,,,,,,,
,,,,,,,,,,,,,,,,,,,,,,,,,
,,,,,,,,,,,,,,,,,,,,,,,,,
,,,,,,,,,,,,,,,,,,,,,,,,,
,,,,,,,,,,,,,,,,,,,,,,,,,
,,,,,,,,,,,,,,,,,,,,,,,,,
,,,,,,,,,,,,,,,,,,,,,,,,,
,,,,,,,,,,,,,,,,,,,,,,,,,
,,,,,,,,,,,,,,,,,,,,,,,,,
,,,,,,,,,,,,,,,,,,,,,,,,,
,,,,,,,,,,,,,,,,,,,,,,,,,
,,,,,,,,,,,,,,,,,,,,,,,,,
,,,,,,,,,,,,,,,,,,,,,,,,,
,,,,,,,,,,,,,,,,,,,,,,,,,
,,,,,,,,,,,,,,,,,,,,,,,,,
,,,,,,,,,,,,,,,,,,,,,,,,,
,,,,,,,,,,,,,,,,,,,,,,,,,
,,,,,,,,,,,,,,,,,,,,,,,,,
,,,,,,,,,,,,,,,,,,,,,,,,,
,,,,,,,,,,,,,,,,,,,,,,,,,
,,,,,,,,,,,,,,,,,,,,,,,,,
,,,,,,,,,,,,,,,,,,,,,,,,,
,,,,,,,,,,,,,,,,,,,,,,,,,
,,,,,,,,,,,,,,,,,,,,,,,,,
,,,,,,,,,,,,,,,,,,,,,,,,,
,,,,,,,,,,,,,,,,,,,,,,,,,
,,,,,,,,,,,,,,,,,,,,,,,,,
,,,,,,,,,,,,,,,,,,,,,,,,,
,,,,,,,,,,,,,,,,,,,,,,,,,
,,,,,,,,,,,,,,,,,,,,,,,,,
,,,,,,,,,,,,,,,,,,,,,,,,,
,,,,,,,,,,,,,,,,,,,,,,,,,
,,,,,,,,,,,,,,,,,,,,,,,,,
,,,,,,,,,,,,,,,,,,,,,,,,,
,,,,,,,,,,,,,,,,,,,,,,,,,
,,,,,,,,,,,,,,,,,,,,,,,,,
,,,,,,,,,,,,,,,,,,,,,,,,,
,,,,,,,,,,,,,,,,,,,,,,,,,
,,,,,,,,,,,,,,,,,,,,,,,,,
,,,,,,,,,,,,,,,,,,,,,,,,,
,,,,,,,,,,,,,,,,,,,,,,,,,
,,,,,,,,,,,,,,,,,,,,,,,,,
,,,,,,,,,,,,,,,,,,,,,,,,,
,,,,,,,,,,,,,,,,,,,,,,,,,
,,,,,,,,,,,,,,,,,,,,,,,,,
,,,,,,,,,,,,,,,,,,,,,,,,,
,,,,,,,,,,,,,,,,,,,,,,,,,
,,,,,,,,,,,,,,,,,,,,,,,,,
,,,,,,,,,,,,,,,,,,,,,,,,,
,,,,,,,,,,,,,,,,,,,,,,,,,
,,,,,,,,,,,,,,,,,,,,,,,,,
,,,,,,,,,,,,,,,,,,,,,,,,,
,,,,,,,,,,,,,,,,,,,,,,,,,
,,,,,,,,,,,,,,,,,,,,,,,,,
,,,,,,,,,,,,,,,,,,,,,,,,,
,,,,,,,,,,,,,,,,,,,,,,,,,
,,,,,,,,,,,,,,,,,,,,,,,,,
,,,,,,,,,,,,,,,,,,,,,,,,,
,,,,,,,,,,,,,,,,,,,,,,,,,
,,,,,,,,,,,,,,,,,,,,,,,,,
,,,,,,,,,,,,,,,,,,,,,,,,,
,,,,,,,,,,,,,,,,,,,,,,,,,
,,,,,,,,,,,,,,,,,,,,,,,,,
,,,,,,,,,,,,,,,,,,,,,,,,,
,,,,,,,,,,,,,,,,,,,,,,,,,
,,,,,,,,,,,,,,,,,,,,,,,,,
,,,,,,,,,,,,,,,,,,,,,,,,,
,,,,,,,,,,,,,,,,,,,,,,,,,
,,,,,,,,,,,,,,,,,,,,,,,,,
,,,,,,,,,,,,,,,,,,,,,,,,,
,,,,,,,,,,,,,,,,,,,,,,,,,
,,,,,,,,,,,,,,,,,,,,,,,,,
,,,,,,,,,,,,,,,,,,,,,,,,,
,,,,,,,,,,,,,,,,,,,,,,,,,
,,,,,,,,,,,,,,,,,,,,,,,,,
,,,,,,,,,,,,,,,,,,,,,,,,,
,,,,,,,,,,,,,,,,,,,,,,,,,
,,,,,,,,,,,,,,,,,,,,,,,,,
,,,,,,,,,,,,,,,,,,,,,,,,,
,,,,,,,,,,,,,,,,,,,,,,,,,
,,,,,,,,,,,,,,,,,,,,,,,,,
,,,,,,,,,,,,,,,,,,,,,,,,,
,,,,,,,,,,,,,,,,,,,,,,,,,
,,,,,,,,,,,,,,,,,,,,,,,,,
,,,,,,,,,,,,,,,,,,,,,,,,,
,,,,,,,,,,,,,,,,,,,,,,,,,
,,,,,,,,,,,,,,,,,,,,,,,,,
,,,,,,,,,,,,,,,,,,,,,,,,,
,,,,,,,,,,,,,,,,,,,,,,,,,
,,,,,,,,,,,,,,,,,,,,,,,,,
,,,,,,,,,,,,,,,,,,,,,,,,,
,,,,,,,,,,,,,,,,,,,,,,,,,
,,,,,,,,,,,,,,,,,,,,,,,,,
,,,,,,,,,,,,,,,,,,,,,,,,,
,,,,,,,,,,,,,,,,,,,,,,,,,
,,,,,,,,,,,,,,,,,,,,,,,,,
,,,,,,,,,,,,,,,,,,,,,,,,,
,,,,,,,,,,,,,,,,,,,,,,,,,
,,,,,,,,,,,,,,,,,,,,,,,,,
,,,,,,,,,,,,,,,,,,,,,,,,,
,,,,,,,,,,,,,,,,,,,,,,,,,
,,,,,,,,,,,,,,,,,,,,,,,,,
,,,,,,,,,,,,,,,,,,,,,,,,,
,,,,,,,,,,,,,,,,,,,,,,,,,
,,,,,,,,,,,,,,,,,,,,,,,,,
,,,,,,,,,,,,,,,,,,,,,,,,,
,,,,,,,,,,,,,,,,,,,,,,,,,
,,,,,,,,,,,,,,,,,,,,,,,,,
,,,,,,,,,,,,,,,,,,,,,,,,,
,,,,,,,,,,,,,,,,,,,,,,,,,
,,,,,,,,,,,,,,,,,,,,,,,,,
,,,,,,,,,,,,,,,,,,,,,,,,,
,,,,,,,,,,,,,,,,,,,,,,,,,
,,,,,,,,,,,,,,,,,,,,,,,,,
,,,,,,,,,,,,,,,,,,,,,,,,,
,,,,,,,,,,,,,,,,,,,,,,,,,
,,,,,,,,,,,,,,,,,,,,,,,,,
,,,,,,,,,,,,,,,,,,,,,,,,,
,,,,,,,,,,,,,,,,,,,,,,,,,
,,,,,,,,,,,,,,,,,,,,,,,,,
,,,,,,,,,,,,,,,,,,,,,,,,,
,,,,,,,,,,,,,,,,,,,,,,,,,
,,,,,,,,,,,,,,,,,,,,,,,,,
,,,,,,,,,,,,,,,,,,,,,,,,,
,,,,,,,,,,,,,,,,,,,,,,,,,
,,,,,,,,,,,,,,,,,,,,,,,,,
,,,,,,,,,,,,,,,,,,,,,,,,,
,,,,,,,,,,,,,,,,,,,,,,,,,
,,,,,,,,,,,,,,,,,,,,,,,,,
,,,,,,,,,,,,,,,,,,,,,,,,,
,,,,,,,,,,,,,,,,,,,,,,,,,
,,,,,,,,,,,,,,,,,,,,,,,,,
,,,,,,,,,,,,,,,,,,,,,,,,,
,,,,,,,,,,,,,,,,,,,,,,,,,
,,,,,,,,,,,,,,,,,,,,,,,,,
,,,,,,,,,,,,,,,,,,,,,,,,,
,,,,,,,,,,,,,,,,,,,,,,,,,
,,,,,,,,,,,,,,,,,,,,,,,,,
,,,,,,,,,,,,,,,,,,,,,,,,,
,,,,,,,,,,,,,,,,,,,,,,,,,
,,,,,,,,,,,,,,,,,,,,,,,,,
,,,,,,,,,,,,,,,,,,,,,,,,,
,,,,,,,,,,,,,,,,,,,,,,,,,
,,,,,,,,,,,,,,,,,,,,,,,,,
,,,,,,,,,,,,,,,,,,,,,,,,,
,,,,,,,,,,,,,,,,,,,,,,,,,
,,,,,,,,,,,,,,,,,,,,,,,,,
,,,,,,,,,,,,,,,,,,,,,,,,,
,,,,,,,,,,,,,,,,,,,,,,,,,
,,,,,,,,,,,,,,,,,,,,,,,,,
