P2017-0076,2004819978,121160998595,10002702784,,438974901
P2017-0097,2001794004,102002052350,180250361473,0730251967,918990015
P2017-0125,n/a,121142407735,030257769522,3451260548,322045138
P2016-0015,2005076125,121135718608,10522071221,3449362209,162888187
P2017-0098,2005172428,101000951162,10502768846,3397968881,301812552
P2017-0089,2005156607,121049729174,10514327241,3424742734,426646046
P2017-0092,2005165678,121194683402,10002823689,3463225416,268345698
P2017-0106,2005211940,121119147113,210252397935,3445663122,325884212
P2016-0055,2000982836,101000175652,190006837224,330468257,147931865
P2016-0061,2001283586,109000000192,190000642146,,111781617
P2016-0049,2005102428,121176719203,102504388147,,331722032
P2016-0052,2004163530,121030658525,12518005853,,212039990
P2017-0113,2003955099,101001205613,30505379752,,267809862
P2017-0084,2003977068,121047172620,30504619490,,265927013
P2017-0074,2001213129,121003901773,190904507443,,215793665
P2017-0088,2004466707,121026853056,10513367355,3426890707,402606990
P2016-0034,2003746447,121144226140,190904766619,3330803673,171100465
P2016-0001,2001764842,147001189559,190902516283,,110840836
P2016-0065,2005127403,121163561700,80260734869,,
P2017-0094,2005172427,121082715615,10515923972,,230620395
P2016-0069,2004614554,121132725215,20505764146,3420892248,294458620
P2016-0007,2001295142,109000024214,10002477780,3330649727,164532771
P2017-0126,2005121491,121184853121,10522134398,346026375,332484172
P2016-0027,2000829084,102001533916,10002217592,,126946151
P2016-0002,2001015561,121143649525,30255355674,,105559419
P2017-0081,2004317115,121085769745,10252472776,0816524453,266088131
P2017-0095,2000728112,121144725602,10002225463,,216588756
P2016-0029,2005102400,121110427087,10518820813,3443602376,316694208
P2016-0018,2005076126,106000446142,30502696919,3399710697,302760343
P2016-0020,2004637549,121051384321,130251314013,063310615,416874772
P2016-0042,2004351014,121043199662,30503739956,3406190171,254906367
P2017-0072,2005144515,121104547986,10518385335,3441970466,436384476
P2016-0046,2005102220,121092183961,10516916848,34392115342,314075535
P2016-0019,2005102398,121140677145,10519941525,3448432240,414469484
P2017-0099,2005172425,121131800362,210501935691,0237542386,330282173
P2017-0116,2004700492,121097504876,50253260642,,465092093
P2016-0008,2005034723,121199127921,32508921321,,n/a
P2017-0107,2005211938,121202856574,132500231533,,451733446
P2016-0056,2004230330,121067117063,20002459753,,431872863
P2017-0075,2001733669,107001434366,10505037923,,188333569
P2017-0071,2005144516,121128554411,10256797777,,
P2016-0142,2004985265,101000085818,20503257670,,900240446
P2016-0047,2004717484,121096687628,10517225849,,314807930
P2016-0017,2003136352,109000036971,20500719150,,923346394
P2016-0022,2005076145,121182860415,110252637834,,426980539
P2016-0041,2005102218,121186444845,10515221390,,306835707
P2016-0045,2005102217,121106937554,10504691506,,306020791
P2016-0016,2005076128,121199036767,192006728096,,491890151
P2017-0101,2004362948,107000423386,190893723882,,906138329
P2017-0112,2004651917,121036615041,10515554047,,276311835
P2016-0064,2005121492,121002708296,10510166758,,216997168
P2017-0096,2005172426,121166885985,10521424368,,
P2017-0093,2005168162,121183110195,10520924049,,463833542
P2016-0044,2004570710,121123038604,30256348078,,456527322
P2016-0033,2005102216,121076446918,20510029896,,439288280
P2016-0037,2005102423,102001082481,10505878243,,263142992
P2016-0053,2005121470,107000266268,30504673312,,260680947
P2016-0070,2003741739,109001965658,190501237365,,184292665
P2016-0066,2005121495,121159752313,22518042312,,500213281
P2017-0122,2005262325,121201104320,212520651265,,340242197
P2016-0062,2001871945,107000730440,190000463217,,915393825
P2016-0063,2004191269,105001725130,190519141047,,203006986
P2016-0043,2004424645,121119364712,10504446277,,301434773
P2017-0123,2004462864,121097077763,210000161904,,435428505
P2016-0048,2005102427,121123116650,30256359991,,455386815
P2017-0078,2005144517,121153381716,10520792886,,323219423
P2017-0100,2005192990,121067853207,10511697757,,304173806
P2016-0021,2005076122,121107048355,80253057401,,271347200
P1900-0148,2005121498,121039164815,190268231475,,284134201
P2017-0102,2005197228,121107940721,30511604911,,443553275
P2017-0109,2005210733,121202036991,10002829539,,
P2017-0131,2005156582,121174778421,10521714714,,323210804
P2016-0067,2005121496,105000542591,20503134021,,247112652
P2017-0079,2005144518,121081588403,30251169159,,274771435
P2016-0060,2005121494,121187049212,12512031291,,483022480
P2016-0035,2001304949,109000004207,190001282771,,111782290
P2017-0083,2000722933,121097574104,10002264434,,305435628
P2016-0038,2001131379,105000034755,20002059801,,231098039
P2016-0031,2004686108,121192414502,100250479977,,236912489
P2016-0025,2004204533,121005183447,70255153208,,402471619
P2017-0132,2005159704,121182765442,80261859576,,336303879
P1900-0153,2004794981,121142780213,10512652722,,305217061
P2017-0121,2005262324,121158724225,30258456226,,298080860
P2017-0103,2005197224,121117066495,80257595564,,419068134
P2017-0128,2005282383,121210902406,10002836241,,
P2016-0004,2003736074,109002331525,10002330771,,217750318
P2017-0105,2005212826,121129774176,190890937032,,111795875
P2017-0085,2005156592,121192465502,92519235635,,319179935
P2017-0120,2005262323,121188573822,30507083583,,275456932
P2016-0039,2005102425,121098268516,192008822545,,285671817
P2017-0111,2005211939,121111954517,10518213534,,431660760
P2017-0080,2001235306,109003354037,160501432382,,930193463
P2016-0014,2005076141,121032981634,190522092502,,213256282
P2017-0073,2001192435,105000358304,190520971754,,206638560
P2016-0032,2001230412,109004418436,190006473818,,916289197
P2016-0050,2004263571,121199011434,10510233293,,230740134
P2017-0129,2004341309,121077259983,10515304164,,430818963
P2016-0024,2004702702,121134419672,10002661565,,304014664
P2017-0090,2005156606,121024569259,30508714307,,260635963
P2016-0030,2005102399,121064824855,10515136687,,218801600
P2016-0028,2003050537,104001171449,150000595677,,154825778
P2016-0026,2005102215,121127218994,30512259940,,423140876
P2016-0054,2003963408,121052355391,50251964804,,263261172
P2016-0003,2001904676,107001419411,190008634789,,158837559
P2017-0087,2005156600,121110304985,100502054117,,444520312
P2016-0011,2001289950,104000138364,40000215963,,907121177
P2016-0068,2005122212,121030815899,10505813036,,255485599
P2017-0086,2005156602,121074307449,210000073452,,428691377
P2016-0009,2001108439,107000414694,190897137082,,912963153
P2016-0023,2005102396,121196472799,10002791132,,465177415
P2017-0118,2005262230,121209178156,30260907928,,447547335
T1900-0156,2005102219,107001341583,190520206705,,180908116
P2017-0108,2005214297,121144249018,10257803223,,321798799
P2016-0012,2004528665,121068140768,70508058789,,452277480
P2017-0114,2004722906,121145772619,72514545732,,467276732
P2017-0115,2005234692,121206113846,32509256364,,
P2017-0077,2003128564,121105474951,30511449215,,442443668
P2016-0058,2004144865,121158357370,10504583347,,306010715
P2017-0082,2004170526,121051536318,190261505014,,297864503
P2016-0006,2001295414,109000005039,190000621610,,111785242
P2017-0124,2005269420,121145604731,190520111607,,126876505
P2016-0051,2005102241,121091439666,10517482736,,313645069
P2017-0091,2004147001,121195494078,30508403883,,407988643
P2016-0036,2005102421,121192122715,10518150125,,442814879
P2017-0110,2001042354,104000875265,20250514671,,247600671
P2016-0010,2005076130,121058854376,10511610686,,211774666
P2016-0057,2004620714,121128827194,20002525616,,459048302
P2016-0013,2005076142,109002011684,10505122912,,253293758
P2017-0119,2005262322,121166981756,10521544002,,452567162