1985005,109.983,306.458
2013006,26.221,46.456
2018011,5.458,5.458
2015003,10.091,26.75
2010011,1.167,3.876
2016010,15.122,11.25
1989006,22.259,55.182
2011032,50.467,195.718
2012011,57.106,91.354
2015010,25.144,9
2011013,5.962,20.667
2016006,7.396,30
2014010,18.667,36.583
2014002,14.129,27.25
1989001,24.747,66.104
2012003,13.886,24.833
2014004,7.589,16.375
1989007,2.86,1.25